%!PS-Adobe-3.0
%%Creator: PCBNEW
%%CreationDate: Fri Nov 25 18:46:32 2022
%%Title: ()
%%Pages: 1
%%PageOrder: Ascend
%%BoundingBox: 0 0 596 842
%%DocumentMedia: A4 595 842 0 () ()
%%Orientation: Landscape
%%EndComments
%%BeginProlog
/line { newpath moveto lineto stroke } bind def
/cir0 { newpath 0 360 arc stroke } bind def
/cir1 { newpath 0 360 arc gsave fill grestore stroke } bind def
/cir2 { newpath 0 360 arc gsave fill grestore stroke } bind def
/arc0 { newpath arc stroke } bind def
/arc1 { newpath 4 index 4 index moveto arc closepath gsave fill
    grestore stroke } bind def
/arc2 { newpath 4 index 4 index moveto arc closepath gsave fill
    grestore stroke } bind def
/poly0 { stroke } bind def
/poly1 { closepath gsave fill grestore stroke } bind def
/poly2 { closepath gsave fill grestore stroke } bind def
/rect0 { rectstroke } bind def
/rect1 { rectfill } bind def
/rect2 { rectfill } bind def
/linemode0 { 0 setlinecap 0 setlinejoin 0 setlinewidth } bind def
/linemode1 { 1 setlinecap 1 setlinejoin } bind def
/dashedline { [200] 100 setdash } bind def
/solidline { [] 0 setdash } bind def
/phantomshow { moveto
    /KicadFont findfont 0.000001 scalefont setfont
    show } bind def
/textshow { gsave
    findfont exch scalefont setfont concat 1 scale 0 0 moveto show
    } bind def
/reencodefont {
  findfont dup length dict begin
  { 1 index /FID ne
    { def }
    { pop pop } ifelse
  } forall
  /Encoding ISOLatin1Encoding def
  currentdict
  end } bind def
/KicadFont /Helvetica reencodefont definefont pop
/KicadFont-Bold /Helvetica-Bold reencodefont definefont pop
/KicadFont-Oblique /Helvetica-Oblique reencodefont definefont pop
/KicadFont-BoldOblique /Helvetica-BoldOblique reencodefont definefont pop
%%EndProlog
%%Page: 1 1
%%BeginPageSetup
gsave
0.0072 0.0072 scale
linemode1
82680 0 translate 90 rotate
169.296 setlinewidth
%%EndPageSetup
0 0 0 setrgbcolor
84.6478 setlinewidth
newpath
112951 80182.8 moveto
3979.33 80182.8 lineto
stroke
newpath
3979.33 80182.8 moveto
3979.33 35569.2 lineto
stroke
newpath
3979.33 35569.2 moveto
112951 35569.2 lineto
stroke
newpath
112951 35569.2 moveto
112951 80182.8 lineto
stroke
169.296 setlinewidth
84.6478 setlinewidth
newpath
9775.59 65608.6 moveto
10622.1 64762.1 lineto
stroke
newpath
10622.1 65608.6 moveto
9775.59 64762.1 lineto
stroke
newpath
9775.59 61376.2 moveto
10622.1 60529.7 lineto
stroke
newpath
10622.1 61376.2 moveto
9775.59 60529.7 lineto
stroke
newpath
9775.59 57143.8 moveto
10622.1 56297.3 lineto
stroke
newpath
10622.1 57143.8 moveto
9775.59 56297.3 lineto
stroke
newpath
9775.59 52911.4 moveto
10622.1 52064.9 lineto
stroke
newpath
10622.1 52911.4 moveto
9775.59 52064.9 lineto
stroke
131.204 setlinewidth
6192.87 60988.9 656.02 cir0
6192.87 56756.5 656.02 cir0
7250.97 46598.8 656.02 cir0
101803 71358.3 656.02 cir0
101803 66702.6 656.02 cir0
101803 60354.1 656.02 cir0
101803 55698.4 656.02 cir0
101803 49349.9 656.02 cir0
101803 44694.2 656.02 cir0
105866 71358.3 656.02 cir0
105866 66702.6 656.02 cir0
105866 60354.1 656.02 cir0
105866 55698.4 656.02 cir0
105866 49349.9 656.02 cir0
105866 44694.2 656.02 cir0
109929 71358.3 656.02 cir0
109929 66702.6 656.02 cir0
109929 60354.1 656.02 cir0
109929 55698.4 656.02 cir0
109929 49349.9 656.02 cir0
109929 44694.2 656.02 cir0
169.296 setlinewidth
newpath
22910.8 74955.8 moveto
22910.8 73262.9 lineto
stroke
newpath
22064.3 74109.3 moveto
23757.3 74109.3 lineto
stroke
newpath
22910.8 64374.8 moveto
22910.8 62681.9 lineto
stroke
newpath
22064.3 63528.4 moveto
23757.3 63528.4 lineto
stroke
newpath
22910.8 52947.4 moveto
22910.8 51254.4 lineto
stroke
newpath
22064.3 52100.9 moveto
23757.3 52100.9 lineto
stroke
newpath
22910.8 42366.4 moveto
22910.8 40673.5 lineto
stroke
newpath
22064.3 41519.9 moveto
23757.3 41519.9 lineto
stroke
newpath
44919.2 74955.8 moveto
44919.2 73262.9 lineto
stroke
newpath
44072.8 74109.3 moveto
45765.7 74109.3 lineto
stroke
newpath
44919.2 64374.8 moveto
44919.2 62681.9 lineto
stroke
newpath
44072.8 63528.4 moveto
45765.7 63528.4 lineto
stroke
newpath
44919.2 52947.4 moveto
44919.2 51254.4 lineto
stroke
newpath
44072.8 52100.9 moveto
45765.7 52100.9 lineto
stroke
newpath
44919.2 42366.4 moveto
44919.2 40673.5 lineto
stroke
newpath
44072.8 41519.9 moveto
45765.7 41519.9 lineto
stroke
newpath
66927.7 74955.8 moveto
66927.7 73262.9 lineto
stroke
newpath
66081.2 74109.3 moveto
67774.1 74109.3 lineto
stroke
newpath
66927.7 64374.8 moveto
66927.7 62681.9 lineto
stroke
newpath
66081.2 63528.4 moveto
67774.1 63528.4 lineto
stroke
newpath
66927.7 52947.4 moveto
66927.7 51254.4 lineto
stroke
newpath
66081.2 52100.9 moveto
67774.1 52100.9 lineto
stroke
newpath
66927.7 42366.4 moveto
66927.7 40673.5 lineto
stroke
newpath
66081.2 41519.9 moveto
67774.1 41519.9 lineto
stroke
newpath
88936.1 74955.8 moveto
88936.1 73262.9 lineto
stroke
newpath
88089.6 74109.3 moveto
89782.6 74109.3 lineto
stroke
newpath
88936.1 64374.8 moveto
88936.1 62681.9 lineto
stroke
newpath
88089.6 63528.4 moveto
89782.6 63528.4 lineto
stroke
newpath
88936.1 52947.4 moveto
88936.1 51254.4 lineto
stroke
newpath
88089.6 52100.9 moveto
89782.6 52100.9 lineto
stroke
newpath
88936.1 42366.4 moveto
88936.1 40673.5 lineto
stroke
newpath
88089.6 41519.9 moveto
89782.6 41519.9 lineto
stroke
78.7402 setlinewidth
0 0 0 setrgbcolor
0 0 0 setrgbcolor
newpath
4951.26 34304.5 moveto
4951.26 35091.9 lineto
5138.73 35091.9 lineto
5251.22 35054.4 lineto
5326.21 34979.4 lineto
5363.7 34904.4 lineto
5401.2 34754.5 lineto
5401.2 34642 lineto
5363.7 34492 lineto
5326.21 34417 lineto
5251.22 34342 lineto
5138.73 34304.5 lineto
4951.26 34304.5 lineto
stroke
newpath
5738.66 34304.5 moveto
5738.66 34829.5 lineto
stroke
newpath
5738.66 34679.5 moveto
5776.15 34754.5 lineto
5813.65 34792 lineto
5888.64 34829.5 lineto
5963.63 34829.5 lineto
stroke
newpath
6226.1 34304.5 moveto
6226.1 34829.5 lineto
stroke
newpath
6226.1 35091.9 moveto
6188.6 35054.4 lineto
6226.1 35016.9 lineto
6263.59 35054.4 lineto
6226.1 35091.9 lineto
6226.1 35016.9 lineto
stroke
newpath
6713.53 34304.5 moveto
6638.54 34342 lineto
6601.05 34417 lineto
6601.05 35091.9 lineto
stroke
newpath
7125.98 34304.5 moveto
7050.99 34342 lineto
7013.5 34417 lineto
7013.5 35091.9 lineto
stroke
newpath
8025.87 34304.5 moveto
8025.87 35091.9 lineto
8288.34 34529.5 lineto
8550.8 35091.9 lineto
8550.8 34304.5 lineto
stroke
newpath
9263.22 34304.5 moveto
9263.22 34717 lineto
9225.72 34792 lineto
9150.73 34829.5 lineto
9000.75 34829.5 lineto
8925.76 34792 lineto
stroke
newpath
9263.22 34342 moveto
9188.23 34304.5 lineto
9000.75 34304.5 lineto
8925.76 34342 lineto
8888.26 34417 lineto
8888.26 34492 lineto
8925.76 34567 lineto
9000.75 34604.5 lineto
9188.23 34604.5 lineto
9263.22 34642 lineto
stroke
newpath
9638.17 34829.5 moveto
9638.17 34042.1 lineto
stroke
newpath
9638.17 34792 moveto
9713.16 34829.5 lineto
9863.14 34829.5 lineto
9938.13 34792 lineto
9975.63 34754.5 lineto
10013.1 34679.5 lineto
10013.1 34454.5 lineto
9975.63 34379.5 lineto
9938.13 34342 lineto
9863.14 34304.5 lineto
9713.16 34304.5 lineto
9638.17 34342 lineto
stroke
newpath
10350.6 34379.5 moveto
10388.1 34342 lineto
10350.6 34304.5 lineto
10313.1 34342 lineto
10350.6 34379.5 lineto
10350.6 34304.5 lineto
stroke
newpath
10350.6 34792 moveto
10388.1 34754.5 lineto
10350.6 34717 lineto
10313.1 34754.5 lineto
10350.6 34792 lineto
10350.6 34717 lineto
stroke
78.7394 setlinewidth
newpath
3149.61 33400.9 moveto
3937.01 32613.5 lineto
stroke
newpath
3937.01 33400.9 moveto
3149.61 32613.5 lineto
stroke
169.296 setlinewidth
78.7402 setlinewidth
0 0 0 setrgbcolor
0 0 0 setrgbcolor
newpath
5363.7 32651 moveto
4913.76 32651 lineto
stroke
newpath
5138.73 32651 moveto
5138.73 33438.4 lineto
5063.74 33325.9 lineto
4988.75 33250.9 lineto
4913.76 33213.4 lineto
stroke
newpath
5701.16 32726 moveto
5738.66 32688.5 lineto
5701.16 32651 lineto
5663.67 32688.5 lineto
5701.16 32726 lineto
5701.16 32651 lineto
stroke
newpath
6226.1 33438.4 moveto
6301.09 33438.4 lineto
6376.08 33400.9 lineto
6413.57 33363.4 lineto
6451.07 33288.4 lineto
6488.56 33138.4 lineto
6488.56 32950.9 lineto
6451.07 32801 lineto
6413.57 32726 lineto
6376.08 32688.5 lineto
6301.09 32651 lineto
6226.1 32651 lineto
6151.11 32688.5 lineto
6113.61 32726 lineto
6076.11 32801 lineto
6038.62 32950.9 lineto
6038.62 33138.4 lineto
6076.11 33288.4 lineto
6113.61 33363.4 lineto
6151.11 33400.9 lineto
6226.1 33438.4 lineto
stroke
newpath
6976 33438.4 moveto
7050.99 33438.4 lineto
7125.98 33400.9 lineto
7163.48 33363.4 lineto
7200.97 33288.4 lineto
7238.47 33138.4 lineto
7238.47 32950.9 lineto
7200.97 32801 lineto
7163.48 32726 lineto
7125.98 32688.5 lineto
7050.99 32651 lineto
6976 32651 lineto
6901.01 32688.5 lineto
6863.52 32726 lineto
6826.02 32801 lineto
6788.53 32950.9 lineto
6788.53 33138.4 lineto
6826.02 33288.4 lineto
6863.52 33363.4 lineto
6901.01 33400.9 lineto
6976 33438.4 lineto
stroke
newpath
7725.91 33438.4 moveto
7800.9 33438.4 lineto
7875.89 33400.9 lineto
7913.38 33363.4 lineto
7950.88 33288.4 lineto
7988.37 33138.4 lineto
7988.37 32950.9 lineto
7950.88 32801 lineto
7913.38 32726 lineto
7875.89 32688.5 lineto
7800.9 32651 lineto
7725.91 32651 lineto
7650.92 32688.5 lineto
7613.42 32726 lineto
7575.93 32801 lineto
7538.43 32950.9 lineto
7538.43 33138.4 lineto
7575.93 33288.4 lineto
7613.42 33363.4 lineto
7650.92 33400.9 lineto
7725.91 33438.4 lineto
stroke
newpath
8325.83 32651 moveto
8325.83 33175.9 lineto
stroke
newpath
8325.83 33100.9 moveto
8363.33 33138.4 lineto
8438.32 33175.9 lineto
8550.8 33175.9 lineto
8625.8 33138.4 lineto
8663.29 33063.4 lineto
8663.29 32651 lineto
stroke
newpath
8663.29 33063.4 moveto
8700.79 33138.4 lineto
8775.78 33175.9 lineto
8888.26 33175.9 lineto
8963.25 33138.4 lineto
9000.75 33063.4 lineto
9000.75 32651 lineto
stroke
newpath
9375.7 32651 moveto
9375.7 33175.9 lineto
stroke
newpath
9375.7 33100.9 moveto
9413.2 33138.4 lineto
9488.19 33175.9 lineto
9600.67 33175.9 lineto
9675.66 33138.4 lineto
9713.16 33063.4 lineto
9713.16 32651 lineto
stroke
newpath
9713.16 33063.4 moveto
9750.65 33138.4 lineto
9825.64 33175.9 lineto
9938.13 33175.9 lineto
10013.1 33138.4 lineto
10050.6 33063.4 lineto
10050.6 32651 lineto
stroke
newpath
11587.9 33475.9 moveto
10913 32463.5 lineto
stroke
newpath
12600.3 33438.4 moveto
12675.3 33438.4 lineto
12750.3 33400.9 lineto
12787.8 33363.4 lineto
12825.3 33288.4 lineto
12862.8 33138.4 lineto
12862.8 32950.9 lineto
12825.3 32801 lineto
12787.8 32726 lineto
12750.3 32688.5 lineto
12675.3 32651 lineto
12600.3 32651 lineto
12525.3 32688.5 lineto
12487.8 32726 lineto
12450.3 32801 lineto
12412.8 32950.9 lineto
12412.8 33138.4 lineto
12450.3 33288.4 lineto
12487.8 33363.4 lineto
12525.3 33400.9 lineto
12600.3 33438.4 lineto
stroke
newpath
13200.2 32726 moveto
13237.7 32688.5 lineto
13200.2 32651 lineto
13162.7 32688.5 lineto
13200.2 32726 lineto
13200.2 32651 lineto
stroke
newpath
13725.2 33438.4 moveto
13800.1 33438.4 lineto
13875.1 33400.9 lineto
13912.6 33363.4 lineto
13950.1 33288.4 lineto
13987.6 33138.4 lineto
13987.6 32950.9 lineto
13950.1 32801 lineto
13912.6 32726 lineto
13875.1 32688.5 lineto
13800.1 32651 lineto
13725.2 32651 lineto
13650.2 32688.5 lineto
13612.7 32726 lineto
13575.2 32801 lineto
13537.7 32950.9 lineto
13537.7 33138.4 lineto
13575.2 33288.4 lineto
13612.7 33363.4 lineto
13650.2 33400.9 lineto
13725.2 33438.4 lineto
stroke
newpath
14250.1 33438.4 moveto
14737.5 33438.4 lineto
14475.1 33138.4 lineto
14587.5 33138.4 lineto
14662.5 33100.9 lineto
14700 33063.4 lineto
14737.5 32988.4 lineto
14737.5 32801 lineto
14700 32726 lineto
14662.5 32688.5 lineto
14587.5 32651 lineto
14362.6 32651 lineto
14287.6 32688.5 lineto
14250.1 32726 lineto
stroke
newpath
15112.5 32651 moveto
15262.5 32651 lineto
15337.5 32688.5 lineto
15375 32726 lineto
15449.9 32838.5 lineto
15487.4 32988.4 lineto
15487.4 33288.4 lineto
15449.9 33363.4 lineto
15412.4 33400.9 lineto
15337.5 33438.4 lineto
15187.5 33438.4 lineto
15112.5 33400.9 lineto
15075 33363.4 lineto
15037.5 33288.4 lineto
15037.5 33100.9 lineto
15075 33025.9 lineto
15112.5 32988.4 lineto
15187.5 32950.9 lineto
15337.5 32950.9 lineto
15412.4 32988.4 lineto
15449.9 33025.9 lineto
15487.4 33100.9 lineto
stroke
newpath
16162.4 33175.9 moveto
16162.4 32651 lineto
stroke
newpath
15974.9 33475.9 moveto
15787.4 32913.4 lineto
16274.8 32913.4 lineto
stroke
newpath
16537.3 33438.4 moveto
16537.3 33288.4 lineto
stroke
newpath
16837.3 33438.4 moveto
16837.3 33288.4 lineto
stroke
newpath
17999.6 32351 moveto
17962.1 32388.5 lineto
17887.1 32501 lineto
17849.6 32576 lineto
17812.1 32688.5 lineto
17774.6 32875.9 lineto
17774.6 33025.9 lineto
17812.1 33213.4 lineto
17849.6 33325.9 lineto
17887.1 33400.9 lineto
17962.1 33513.4 lineto
17999.6 33550.9 lineto
stroke
newpath
18637 33175.9 moveto
18637 32651 lineto
stroke
newpath
18449.6 33475.9 moveto
18262.1 32913.4 lineto
18749.5 32913.4 lineto
stroke
newpath
19649.4 32651 moveto
19649.4 33438.4 lineto
stroke
newpath
19986.9 32651 moveto
19986.9 33063.4 lineto
19949.4 33138.4 lineto
19874.4 33175.9 lineto
19761.9 33175.9 lineto
19686.9 33138.4 lineto
19649.4 33100.9 lineto
stroke
newpath
20474.3 32651 moveto
20399.3 32688.5 lineto
20361.8 32726 lineto
20324.3 32801 lineto
20324.3 33025.9 lineto
20361.8 33100.9 lineto
20399.3 33138.4 lineto
20474.3 33175.9 lineto
20586.8 33175.9 lineto
20661.8 33138.4 lineto
20699.3 33100.9 lineto
20736.8 33025.9 lineto
20736.8 32801 lineto
20699.3 32726 lineto
20661.8 32688.5 lineto
20586.8 32651 lineto
20474.3 32651 lineto
stroke
newpath
21186.7 32651 moveto
21111.7 32688.5 lineto
21074.2 32763.5 lineto
21074.2 33438.4 lineto
stroke
newpath
21786.6 32688.5 moveto
21711.7 32651 lineto
21561.7 32651 lineto
21486.7 32688.5 lineto
21449.2 32763.5 lineto
21449.2 33063.4 lineto
21486.7 33138.4 lineto
21561.7 33175.9 lineto
21711.7 33175.9 lineto
21786.6 33138.4 lineto
21824.1 33063.4 lineto
21824.1 32988.4 lineto
21449.2 32913.4 lineto
stroke
newpath
22124.1 32688.5 moveto
22199.1 32651 lineto
22349.1 32651 lineto
22424.1 32688.5 lineto
22461.6 32763.5 lineto
22461.6 32801 lineto
22424.1 32875.9 lineto
22349.1 32913.4 lineto
22236.6 32913.4 lineto
22161.6 32950.9 lineto
22124.1 33025.9 lineto
22124.1 33063.4 lineto
22161.6 33138.4 lineto
22236.6 33175.9 lineto
22349.1 33175.9 lineto
22424.1 33138.4 lineto
stroke
newpath
22724 32351 moveto
22761.5 32388.5 lineto
22836.5 32501 lineto
22874 32576 lineto
22911.5 32688.5 lineto
22949 32875.9 lineto
22949 33025.9 lineto
22911.5 33213.4 lineto
22874 33325.9 lineto
22836.5 33400.9 lineto
22761.5 33513.4 lineto
22724 33550.9 lineto
stroke
78.7394 setlinewidth
3543.31 31747.3 393.7 cir0
169.296 setlinewidth
78.7402 setlinewidth
0 0 0 setrgbcolor
0 0 0 setrgbcolor
newpath
5363.7 31391.1 moveto
4913.76 31391.1 lineto
stroke
newpath
5138.73 31391.1 moveto
5138.73 32178.5 lineto
5063.74 32066.1 lineto
4988.75 31991.1 lineto
4913.76 31953.6 lineto
stroke
newpath
5701.16 31466.1 moveto
5738.66 31428.6 lineto
5701.16 31391.1 lineto
5663.67 31428.6 lineto
5701.16 31466.1 lineto
5701.16 31391.1 lineto
stroke
newpath
6451.07 32178.5 moveto
6076.11 32178.5 lineto
6038.62 31803.6 lineto
6076.11 31841.1 lineto
6151.11 31878.6 lineto
6338.58 31878.6 lineto
6413.57 31841.1 lineto
6451.07 31803.6 lineto
6488.56 31728.6 lineto
6488.56 31541.1 lineto
6451.07 31466.1 lineto
6413.57 31428.6 lineto
6338.58 31391.1 lineto
6151.11 31391.1 lineto
6076.11 31428.6 lineto
6038.62 31466.1 lineto
stroke
newpath
7200.97 32178.5 moveto
6826.02 32178.5 lineto
6788.53 31803.6 lineto
6826.02 31841.1 lineto
6901.01 31878.6 lineto
7088.49 31878.6 lineto
7163.48 31841.1 lineto
7200.97 31803.6 lineto
7238.47 31728.6 lineto
7238.47 31541.1 lineto
7200.97 31466.1 lineto
7163.48 31428.6 lineto
7088.49 31391.1 lineto
6901.01 31391.1 lineto
6826.02 31428.6 lineto
6788.53 31466.1 lineto
stroke
newpath
7725.91 32178.5 moveto
7800.9 32178.5 lineto
7875.89 32141 lineto
7913.38 32103.5 lineto
7950.88 32028.6 lineto
7988.37 31878.6 lineto
7988.37 31691.1 lineto
7950.88 31541.1 lineto
7913.38 31466.1 lineto
7875.89 31428.6 lineto
7800.9 31391.1 lineto
7725.91 31391.1 lineto
7650.92 31428.6 lineto
7613.42 31466.1 lineto
7575.93 31541.1 lineto
7538.43 31691.1 lineto
7538.43 31878.6 lineto
7575.93 32028.6 lineto
7613.42 32103.5 lineto
7650.92 32141 lineto
7725.91 32178.5 lineto
stroke
newpath
8325.83 31391.1 moveto
8325.83 31916.1 lineto
stroke
newpath
8325.83 31841.1 moveto
8363.33 31878.6 lineto
8438.32 31916.1 lineto
8550.8 31916.1 lineto
8625.8 31878.6 lineto
8663.29 31803.6 lineto
8663.29 31391.1 lineto
stroke
newpath
8663.29 31803.6 moveto
8700.79 31878.6 lineto
8775.78 31916.1 lineto
8888.26 31916.1 lineto
8963.25 31878.6 lineto
9000.75 31803.6 lineto
9000.75 31391.1 lineto
stroke
newpath
9375.7 31391.1 moveto
9375.7 31916.1 lineto
stroke
newpath
9375.7 31841.1 moveto
9413.2 31878.6 lineto
9488.19 31916.1 lineto
9600.67 31916.1 lineto
9675.66 31878.6 lineto
9713.16 31803.6 lineto
9713.16 31391.1 lineto
stroke
newpath
9713.16 31803.6 moveto
9750.65 31878.6 lineto
9825.64 31916.1 lineto
9938.13 31916.1 lineto
10013.1 31878.6 lineto
10050.6 31803.6 lineto
10050.6 31391.1 lineto
stroke
newpath
11587.9 32216 moveto
10913 31203.7 lineto
stroke
newpath
12600.3 32178.5 moveto
12675.3 32178.5 lineto
12750.3 32141 lineto
12787.8 32103.5 lineto
12825.3 32028.6 lineto
12862.8 31878.6 lineto
12862.8 31691.1 lineto
12825.3 31541.1 lineto
12787.8 31466.1 lineto
12750.3 31428.6 lineto
12675.3 31391.1 lineto
12600.3 31391.1 lineto
12525.3 31428.6 lineto
12487.8 31466.1 lineto
12450.3 31541.1 lineto
12412.8 31691.1 lineto
12412.8 31878.6 lineto
12450.3 32028.6 lineto
12487.8 32103.5 lineto
12525.3 32141 lineto
12600.3 32178.5 lineto
stroke
newpath
13200.2 31466.1 moveto
13237.7 31428.6 lineto
13200.2 31391.1 lineto
13162.7 31428.6 lineto
13200.2 31466.1 lineto
13200.2 31391.1 lineto
stroke
newpath
13725.2 32178.5 moveto
13800.1 32178.5 lineto
13875.1 32141 lineto
13912.6 32103.5 lineto
13950.1 32028.6 lineto
13987.6 31878.6 lineto
13987.6 31691.1 lineto
13950.1 31541.1 lineto
13912.6 31466.1 lineto
13875.1 31428.6 lineto
13800.1 31391.1 lineto
13725.2 31391.1 lineto
13650.2 31428.6 lineto
13612.7 31466.1 lineto
13575.2 31541.1 lineto
13537.7 31691.1 lineto
13537.7 31878.6 lineto
13575.2 32028.6 lineto
13612.7 32103.5 lineto
13650.2 32141 lineto
13725.2 32178.5 lineto
stroke
newpath
14662.5 32178.5 moveto
14512.6 32178.5 lineto
14437.6 32141 lineto
14400.1 32103.5 lineto
14325.1 31991.1 lineto
14287.6 31841.1 lineto
14287.6 31541.1 lineto
14325.1 31466.1 lineto
14362.6 31428.6 lineto
14437.6 31391.1 lineto
14587.5 31391.1 lineto
14662.5 31428.6 lineto
14700 31466.1 lineto
14737.5 31541.1 lineto
14737.5 31728.6 lineto
14700 31803.6 lineto
14662.5 31841.1 lineto
14587.5 31878.6 lineto
14437.6 31878.6 lineto
14362.6 31841.1 lineto
14325.1 31803.6 lineto
14287.6 31728.6 lineto
stroke
newpath
15487.4 31391.1 moveto
15037.5 31391.1 lineto
stroke
newpath
15262.5 31391.1 moveto
15262.5 32178.5 lineto
15187.5 32066.1 lineto
15112.5 31991.1 lineto
15037.5 31953.6 lineto
stroke
newpath
15974.9 32178.5 moveto
16049.9 32178.5 lineto
16124.9 32141 lineto
16162.4 32103.5 lineto
16199.8 32028.6 lineto
16237.3 31878.6 lineto
16237.3 31691.1 lineto
16199.8 31541.1 lineto
16162.4 31466.1 lineto
16124.9 31428.6 lineto
16049.9 31391.1 lineto
15974.9 31391.1 lineto
15899.9 31428.6 lineto
15862.4 31466.1 lineto
15824.9 31541.1 lineto
15787.4 31691.1 lineto
15787.4 31878.6 lineto
15824.9 32028.6 lineto
15862.4 32103.5 lineto
15899.9 32141 lineto
15974.9 32178.5 lineto
stroke
newpath
16537.3 32178.5 moveto
16537.3 32028.6 lineto
stroke
newpath
16837.3 32178.5 moveto
16837.3 32028.6 lineto
stroke
newpath
17999.6 31091.2 moveto
17962.1 31128.7 lineto
17887.1 31241.2 lineto
17849.6 31316.1 lineto
17812.1 31428.6 lineto
17774.6 31616.1 lineto
17774.6 31766.1 lineto
17812.1 31953.6 lineto
17849.6 32066.1 lineto
17887.1 32141 lineto
17962.1 32253.5 lineto
17999.6 32291 lineto
stroke
newpath
18262.1 32103.5 moveto
18299.6 32141 lineto
18374.6 32178.5 lineto
18562.1 32178.5 lineto
18637 32141 lineto
18674.5 32103.5 lineto
18712 32028.6 lineto
18712 31953.6 lineto
18674.5 31841.1 lineto
18224.6 31391.1 lineto
18712 31391.1 lineto
stroke
newpath
19461.9 31391.1 moveto
19012 31391.1 lineto
stroke
newpath
19237 31391.1 moveto
19237 32178.5 lineto
19162 32066.1 lineto
19087 31991.1 lineto
19012 31953.6 lineto
stroke
newpath
20399.3 31391.1 moveto
20399.3 32178.5 lineto
stroke
newpath
20736.8 31391.1 moveto
20736.8 31803.6 lineto
20699.3 31878.6 lineto
20624.3 31916.1 lineto
20511.8 31916.1 lineto
20436.8 31878.6 lineto
20399.3 31841.1 lineto
stroke
newpath
21224.2 31391.1 moveto
21149.2 31428.6 lineto
21111.7 31466.1 lineto
21074.2 31541.1 lineto
21074.2 31766.1 lineto
21111.7 31841.1 lineto
21149.2 31878.6 lineto
21224.2 31916.1 lineto
21336.7 31916.1 lineto
21411.7 31878.6 lineto
21449.2 31841.1 lineto
21486.7 31766.1 lineto
21486.7 31541.1 lineto
21449.2 31466.1 lineto
21411.7 31428.6 lineto
21336.7 31391.1 lineto
21224.2 31391.1 lineto
stroke
newpath
21936.6 31391.1 moveto
21861.6 31428.6 lineto
21824.1 31503.6 lineto
21824.1 32178.5 lineto
stroke
newpath
22536.6 31428.6 moveto
22461.6 31391.1 lineto
22311.6 31391.1 lineto
22236.6 31428.6 lineto
22199.1 31503.6 lineto
22199.1 31803.6 lineto
22236.6 31878.6 lineto
22311.6 31916.1 lineto
22461.6 31916.1 lineto
22536.6 31878.6 lineto
22574 31803.6 lineto
22574 31728.6 lineto
22199.1 31653.6 lineto
stroke
newpath
22874 31428.6 moveto
22949 31391.1 lineto
23099 31391.1 lineto
23174 31428.6 lineto
23211.5 31503.6 lineto
23211.5 31541.1 lineto
23174 31616.1 lineto
23099 31653.6 lineto
22986.5 31653.6 lineto
22911.5 31691.1 lineto
22874 31766.1 lineto
22874 31803.6 lineto
22911.5 31878.6 lineto
22986.5 31916.1 lineto
23099 31916.1 lineto
23174 31878.6 lineto
stroke
newpath
23473.9 31091.2 moveto
23511.4 31128.7 lineto
23586.4 31241.2 lineto
23623.9 31316.1 lineto
23661.4 31428.6 lineto
23698.9 31616.1 lineto
23698.9 31766.1 lineto
23661.4 31953.6 lineto
23623.9 32066.1 lineto
23586.4 32141 lineto
23511.4 32253.5 lineto
23473.9 32291 lineto
stroke
78.7394 setlinewidth
newpath
3543.31 30881.2 moveto
3543.31 30093.8 lineto
stroke
newpath
3149.61 30487.5 moveto
3937.01 30487.5 lineto
stroke
169.296 setlinewidth
78.7402 setlinewidth
0 0 0 setrgbcolor
0 0 0 setrgbcolor
newpath
4913.76 30843.7 moveto
4951.26 30881.2 lineto
5026.25 30918.7 lineto
5213.72 30918.7 lineto
5288.71 30881.2 lineto
5326.21 30843.7 lineto
5363.7 30768.7 lineto
5363.7 30693.7 lineto
5326.21 30581.2 lineto
4876.26 30131.3 lineto
5363.7 30131.3 lineto
stroke
newpath
5701.16 30206.3 moveto
5738.66 30168.8 lineto
5701.16 30131.3 lineto
5663.67 30168.8 lineto
5701.16 30206.3 lineto
5701.16 30131.3 lineto
stroke
newpath
6226.1 30918.7 moveto
6301.09 30918.7 lineto
6376.08 30881.2 lineto
6413.57 30843.7 lineto
6451.07 30768.7 lineto
6488.56 30618.7 lineto
6488.56 30431.3 lineto
6451.07 30281.3 lineto
6413.57 30206.3 lineto
6376.08 30168.8 lineto
6301.09 30131.3 lineto
6226.1 30131.3 lineto
6151.11 30168.8 lineto
6113.61 30206.3 lineto
6076.11 30281.3 lineto
6038.62 30431.3 lineto
6038.62 30618.7 lineto
6076.11 30768.7 lineto
6113.61 30843.7 lineto
6151.11 30881.2 lineto
6226.1 30918.7 lineto
stroke
newpath
6976 30918.7 moveto
7050.99 30918.7 lineto
7125.98 30881.2 lineto
7163.48 30843.7 lineto
7200.97 30768.7 lineto
7238.47 30618.7 lineto
7238.47 30431.3 lineto
7200.97 30281.3 lineto
7163.48 30206.3 lineto
7125.98 30168.8 lineto
7050.99 30131.3 lineto
6976 30131.3 lineto
6901.01 30168.8 lineto
6863.52 30206.3 lineto
6826.02 30281.3 lineto
6788.53 30431.3 lineto
6788.53 30618.7 lineto
6826.02 30768.7 lineto
6863.52 30843.7 lineto
6901.01 30881.2 lineto
6976 30918.7 lineto
stroke
newpath
7725.91 30918.7 moveto
7800.9 30918.7 lineto
7875.89 30881.2 lineto
7913.38 30843.7 lineto
7950.88 30768.7 lineto
7988.37 30618.7 lineto
7988.37 30431.3 lineto
7950.88 30281.3 lineto
7913.38 30206.3 lineto
7875.89 30168.8 lineto
7800.9 30131.3 lineto
7725.91 30131.3 lineto
7650.92 30168.8 lineto
7613.42 30206.3 lineto
7575.93 30281.3 lineto
7538.43 30431.3 lineto
7538.43 30618.7 lineto
7575.93 30768.7 lineto
7613.42 30843.7 lineto
7650.92 30881.2 lineto
7725.91 30918.7 lineto
stroke
newpath
8325.83 30131.3 moveto
8325.83 30656.2 lineto
stroke
newpath
8325.83 30581.2 moveto
8363.33 30618.7 lineto
8438.32 30656.2 lineto
8550.8 30656.2 lineto
8625.8 30618.7 lineto
8663.29 30543.7 lineto
8663.29 30131.3 lineto
stroke
newpath
8663.29 30543.7 moveto
8700.79 30618.7 lineto
8775.78 30656.2 lineto
8888.26 30656.2 lineto
8963.25 30618.7 lineto
9000.75 30543.7 lineto
9000.75 30131.3 lineto
stroke
newpath
9375.7 30131.3 moveto
9375.7 30656.2 lineto
stroke
newpath
9375.7 30581.2 moveto
9413.2 30618.7 lineto
9488.19 30656.2 lineto
9600.67 30656.2 lineto
9675.66 30618.7 lineto
9713.16 30543.7 lineto
9713.16 30131.3 lineto
stroke
newpath
9713.16 30543.7 moveto
9750.65 30618.7 lineto
9825.64 30656.2 lineto
9938.13 30656.2 lineto
10013.1 30618.7 lineto
10050.6 30543.7 lineto
10050.6 30131.3 lineto
stroke
newpath
11587.9 30956.2 moveto
10913 29943.8 lineto
stroke
newpath
12600.3 30918.7 moveto
12675.3 30918.7 lineto
12750.3 30881.2 lineto
12787.8 30843.7 lineto
12825.3 30768.7 lineto
12862.8 30618.7 lineto
12862.8 30431.3 lineto
12825.3 30281.3 lineto
12787.8 30206.3 lineto
12750.3 30168.8 lineto
12675.3 30131.3 lineto
12600.3 30131.3 lineto
12525.3 30168.8 lineto
12487.8 30206.3 lineto
12450.3 30281.3 lineto
12412.8 30431.3 lineto
12412.8 30618.7 lineto
12450.3 30768.7 lineto
12487.8 30843.7 lineto
12525.3 30881.2 lineto
12600.3 30918.7 lineto
stroke
newpath
13200.2 30206.3 moveto
13237.7 30168.8 lineto
13200.2 30131.3 lineto
13162.7 30168.8 lineto
13200.2 30206.3 lineto
13200.2 30131.3 lineto
stroke
newpath
13725.2 30918.7 moveto
13800.1 30918.7 lineto
13875.1 30881.2 lineto
13912.6 30843.7 lineto
13950.1 30768.7 lineto
13987.6 30618.7 lineto
13987.6 30431.3 lineto
13950.1 30281.3 lineto
13912.6 30206.3 lineto
13875.1 30168.8 lineto
13800.1 30131.3 lineto
13725.2 30131.3 lineto
13650.2 30168.8 lineto
13612.7 30206.3 lineto
13575.2 30281.3 lineto
13537.7 30431.3 lineto
13537.7 30618.7 lineto
13575.2 30768.7 lineto
13612.7 30843.7 lineto
13650.2 30881.2 lineto
13725.2 30918.7 lineto
stroke
newpath
14250.1 30918.7 moveto
14775 30918.7 lineto
14437.6 30131.3 lineto
stroke
newpath
15187.5 30581.2 moveto
15112.5 30618.7 lineto
15075 30656.2 lineto
15037.5 30731.2 lineto
15037.5 30768.7 lineto
15075 30843.7 lineto
15112.5 30881.2 lineto
15187.5 30918.7 lineto
15337.5 30918.7 lineto
15412.4 30881.2 lineto
15449.9 30843.7 lineto
15487.4 30768.7 lineto
15487.4 30731.2 lineto
15449.9 30656.2 lineto
15412.4 30618.7 lineto
15337.5 30581.2 lineto
15187.5 30581.2 lineto
15112.5 30543.7 lineto
15075 30506.2 lineto
15037.5 30431.3 lineto
15037.5 30281.3 lineto
15075 30206.3 lineto
15112.5 30168.8 lineto
15187.5 30131.3 lineto
15337.5 30131.3 lineto
15412.4 30168.8 lineto
15449.9 30206.3 lineto
15487.4 30281.3 lineto
15487.4 30431.3 lineto
15449.9 30506.2 lineto
15412.4 30543.7 lineto
15337.5 30581.2 lineto
stroke
newpath
15749.9 30918.7 moveto
16274.8 30918.7 lineto
15937.4 30131.3 lineto
stroke
newpath
16537.3 30918.7 moveto
16537.3 30768.7 lineto
stroke
newpath
16837.3 30918.7 moveto
16837.3 30768.7 lineto
stroke
newpath
17999.6 29831.3 moveto
17962.1 29868.8 lineto
17887.1 29981.3 lineto
17849.6 30056.3 lineto
17812.1 30168.8 lineto
17774.6 30356.3 lineto
17774.6 30506.2 lineto
17812.1 30693.7 lineto
17849.6 30806.2 lineto
17887.1 30881.2 lineto
17962.1 30993.7 lineto
17999.6 31031.2 lineto
stroke
newpath
18712 30131.3 moveto
18262.1 30131.3 lineto
stroke
newpath
18487.1 30131.3 moveto
18487.1 30918.7 lineto
18412.1 30806.2 lineto
18337.1 30731.2 lineto
18262.1 30693.7 lineto
stroke
newpath
19386.9 30918.7 moveto
19237 30918.7 lineto
19162 30881.2 lineto
19124.5 30843.7 lineto
19049.5 30731.2 lineto
19012 30581.2 lineto
19012 30281.3 lineto
19049.5 30206.3 lineto
19087 30168.8 lineto
19162 30131.3 lineto
19312 30131.3 lineto
19386.9 30168.8 lineto
19424.4 30206.3 lineto
19461.9 30281.3 lineto
19461.9 30468.8 lineto
19424.4 30543.7 lineto
19386.9 30581.2 lineto
19312 30618.7 lineto
19162 30618.7 lineto
19087 30581.2 lineto
19049.5 30543.7 lineto
19012 30468.8 lineto
stroke
newpath
20399.3 30131.3 moveto
20399.3 30918.7 lineto
stroke
newpath
20736.8 30131.3 moveto
20736.8 30543.7 lineto
20699.3 30618.7 lineto
20624.3 30656.2 lineto
20511.8 30656.2 lineto
20436.8 30618.7 lineto
20399.3 30581.2 lineto
stroke
newpath
21224.2 30131.3 moveto
21149.2 30168.8 lineto
21111.7 30206.3 lineto
21074.2 30281.3 lineto
21074.2 30506.2 lineto
21111.7 30581.2 lineto
21149.2 30618.7 lineto
21224.2 30656.2 lineto
21336.7 30656.2 lineto
21411.7 30618.7 lineto
21449.2 30581.2 lineto
21486.7 30506.2 lineto
21486.7 30281.3 lineto
21449.2 30206.3 lineto
21411.7 30168.8 lineto
21336.7 30131.3 lineto
21224.2 30131.3 lineto
stroke
newpath
21936.6 30131.3 moveto
21861.6 30168.8 lineto
21824.1 30243.8 lineto
21824.1 30918.7 lineto
stroke
newpath
22536.6 30168.8 moveto
22461.6 30131.3 lineto
22311.6 30131.3 lineto
22236.6 30168.8 lineto
22199.1 30243.8 lineto
22199.1 30543.7 lineto
22236.6 30618.7 lineto
22311.6 30656.2 lineto
22461.6 30656.2 lineto
22536.6 30618.7 lineto
22574 30543.7 lineto
22574 30468.8 lineto
22199.1 30393.8 lineto
stroke
newpath
22874 30168.8 moveto
22949 30131.3 lineto
23099 30131.3 lineto
23174 30168.8 lineto
23211.5 30243.8 lineto
23211.5 30281.3 lineto
23174 30356.3 lineto
23099 30393.8 lineto
22986.5 30393.8 lineto
22911.5 30431.3 lineto
22874 30506.2 lineto
22874 30543.7 lineto
22911.5 30618.7 lineto
22986.5 30656.2 lineto
23099 30656.2 lineto
23174 30618.7 lineto
stroke
newpath
23473.9 29831.3 moveto
23511.4 29868.8 lineto
23586.4 29981.3 lineto
23623.9 30056.3 lineto
23661.4 30168.8 lineto
23698.9 30356.3 lineto
23698.9 30506.2 lineto
23661.4 30693.7 lineto
23623.9 30806.2 lineto
23586.4 30881.2 lineto
23511.4 30993.7 lineto
23473.9 31031.2 lineto
stroke
showpage
grestore
%%EOF
