%!PS-Adobe-3.0
%%Creator: PCBNEW
%%CreationDate: Fri Nov 25 18:46:32 2022
%%Title: ()
%%Pages: 1
%%PageOrder: Ascend
%%BoundingBox: 0 0 596 842
%%DocumentMedia: A4 595 842 0 () ()
%%Orientation: Landscape
%%EndComments
%%BeginProlog
/line { newpath moveto lineto stroke } bind def
/cir0 { newpath 0 360 arc stroke } bind def
/cir1 { newpath 0 360 arc gsave fill grestore stroke } bind def
/cir2 { newpath 0 360 arc gsave fill grestore stroke } bind def
/arc0 { newpath arc stroke } bind def
/arc1 { newpath 4 index 4 index moveto arc closepath gsave fill
    grestore stroke } bind def
/arc2 { newpath 4 index 4 index moveto arc closepath gsave fill
    grestore stroke } bind def
/poly0 { stroke } bind def
/poly1 { closepath gsave fill grestore stroke } bind def
/poly2 { closepath gsave fill grestore stroke } bind def
/rect0 { rectstroke } bind def
/rect1 { rectfill } bind def
/rect2 { rectfill } bind def
/linemode0 { 0 setlinecap 0 setlinejoin 0 setlinewidth } bind def
/linemode1 { 1 setlinecap 1 setlinejoin } bind def
/dashedline { [200] 100 setdash } bind def
/solidline { [] 0 setdash } bind def
/phantomshow { moveto
    /KicadFont findfont 0.000001 scalefont setfont
    show } bind def
/textshow { gsave
    findfont exch scalefont setfont concat 1 scale 0 0 moveto show
    } bind def
/reencodefont {
  findfont dup length dict begin
  { 1 index /FID ne
    { def }
    { pop pop } ifelse
  } forall
  /Encoding ISOLatin1Encoding def
  currentdict
  end } bind def
/KicadFont /Helvetica reencodefont definefont pop
/KicadFont-Bold /Helvetica-Bold reencodefont definefont pop
/KicadFont-Oblique /Helvetica-Oblique reencodefont definefont pop
/KicadFont-BoldOblique /Helvetica-BoldOblique reencodefont definefont pop
%%EndProlog
%%Page: 1 1
%%BeginPageSetup
gsave
0.0072 0.0072 scale
linemode1
82680 0 translate 90 rotate
169.296 setlinewidth
%%EndPageSetup
0 0 0 setrgbcolor
84.6478 setlinewidth
newpath
112951 80182.8 moveto
3979.33 80182.8 lineto
stroke
newpath
3979.33 80182.8 moveto
3979.33 35569.2 lineto
stroke
newpath
3979.33 35569.2 moveto
112951 35569.2 lineto
stroke
newpath
112951 35569.2 moveto
112951 80182.8 lineto
stroke
169.296 setlinewidth
270.873 setlinewidth
newpath
5896.6 78426.4 moveto
8605.33 75717.6 lineto
stroke
newpath
8605.33 78426.4 moveto
5896.6 75717.6 lineto
stroke
newpath
5896.6 40123.2 moveto
8605.33 37414.5 lineto
stroke
newpath
8605.33 40123.2 moveto
5896.6 37414.5 lineto
stroke
newpath
54569.1 59169 moveto
57277.8 56460.3 lineto
stroke
newpath
57277.8 59169 moveto
54569.1 56460.3 lineto
stroke
newpath
108320 78214.7 moveto
111029 75506 lineto
stroke
newpath
111029 78214.7 moveto
108320 75506 lineto
stroke
newpath
108320 40123.2 moveto
111029 37414.5 lineto
stroke
newpath
111029 40123.2 moveto
108320 37414.5 lineto
stroke
169.296 setlinewidth
78.7402 setlinewidth
0 0 0 setrgbcolor
0 0 0 setrgbcolor
newpath
4951.26 34304.5 moveto
4951.26 35091.9 lineto
5138.73 35091.9 lineto
5251.22 35054.4 lineto
5326.21 34979.4 lineto
5363.7 34904.4 lineto
5401.2 34754.5 lineto
5401.2 34642 lineto
5363.7 34492 lineto
5326.21 34417 lineto
5251.22 34342 lineto
5138.73 34304.5 lineto
4951.26 34304.5 lineto
stroke
newpath
5738.66 34304.5 moveto
5738.66 34829.5 lineto
stroke
newpath
5738.66 34679.5 moveto
5776.15 34754.5 lineto
5813.65 34792 lineto
5888.64 34829.5 lineto
5963.63 34829.5 lineto
stroke
newpath
6226.1 34304.5 moveto
6226.1 34829.5 lineto
stroke
newpath
6226.1 35091.9 moveto
6188.6 35054.4 lineto
6226.1 35016.9 lineto
6263.59 35054.4 lineto
6226.1 35091.9 lineto
6226.1 35016.9 lineto
stroke
newpath
6713.53 34304.5 moveto
6638.54 34342 lineto
6601.05 34417 lineto
6601.05 35091.9 lineto
stroke
newpath
7125.98 34304.5 moveto
7050.99 34342 lineto
7013.5 34417 lineto
7013.5 35091.9 lineto
stroke
newpath
8025.87 34304.5 moveto
8025.87 35091.9 lineto
8288.34 34529.5 lineto
8550.8 35091.9 lineto
8550.8 34304.5 lineto
stroke
newpath
9263.22 34304.5 moveto
9263.22 34717 lineto
9225.72 34792 lineto
9150.73 34829.5 lineto
9000.75 34829.5 lineto
8925.76 34792 lineto
stroke
newpath
9263.22 34342 moveto
9188.23 34304.5 lineto
9000.75 34304.5 lineto
8925.76 34342 lineto
8888.26 34417 lineto
8888.26 34492 lineto
8925.76 34567 lineto
9000.75 34604.5 lineto
9188.23 34604.5 lineto
9263.22 34642 lineto
stroke
newpath
9638.17 34829.5 moveto
9638.17 34042.1 lineto
stroke
newpath
9638.17 34792 moveto
9713.16 34829.5 lineto
9863.14 34829.5 lineto
9938.13 34792 lineto
9975.63 34754.5 lineto
10013.1 34679.5 lineto
10013.1 34454.5 lineto
9975.63 34379.5 lineto
9938.13 34342 lineto
9863.14 34304.5 lineto
9713.16 34304.5 lineto
9638.17 34342 lineto
stroke
newpath
10350.6 34379.5 moveto
10388.1 34342 lineto
10350.6 34304.5 lineto
10313.1 34342 lineto
10350.6 34379.5 lineto
10350.6 34304.5 lineto
stroke
newpath
10350.6 34792 moveto
10388.1 34754.5 lineto
10350.6 34717 lineto
10313.1 34754.5 lineto
10350.6 34792 lineto
10350.6 34717 lineto
stroke
78.7394 setlinewidth
newpath
3149.61 33400.9 moveto
3937.01 32613.5 lineto
stroke
newpath
3937.01 33400.9 moveto
3149.61 32613.5 lineto
stroke
169.296 setlinewidth
78.7402 setlinewidth
0 0 0 setrgbcolor
0 0 0 setrgbcolor
newpath
4876.26 33438.4 moveto
5363.7 33438.4 lineto
5101.24 33138.4 lineto
5213.72 33138.4 lineto
5288.71 33100.9 lineto
5326.21 33063.4 lineto
5363.7 32988.4 lineto
5363.7 32801 lineto
5326.21 32726 lineto
5288.71 32688.5 lineto
5213.72 32651 lineto
4988.75 32651 lineto
4913.76 32688.5 lineto
4876.26 32726 lineto
stroke
newpath
5701.16 32726 moveto
5738.66 32688.5 lineto
5701.16 32651 lineto
5663.67 32688.5 lineto
5701.16 32726 lineto
5701.16 32651 lineto
stroke
newpath
6038.62 33363.4 moveto
6076.11 33400.9 lineto
6151.11 33438.4 lineto
6338.58 33438.4 lineto
6413.57 33400.9 lineto
6451.07 33363.4 lineto
6488.56 33288.4 lineto
6488.56 33213.4 lineto
6451.07 33100.9 lineto
6001.12 32651 lineto
6488.56 32651 lineto
stroke
newpath
6976 33438.4 moveto
7050.99 33438.4 lineto
7125.98 33400.9 lineto
7163.48 33363.4 lineto
7200.97 33288.4 lineto
7238.47 33138.4 lineto
7238.47 32950.9 lineto
7200.97 32801 lineto
7163.48 32726 lineto
7125.98 32688.5 lineto
7050.99 32651 lineto
6976 32651 lineto
6901.01 32688.5 lineto
6863.52 32726 lineto
6826.02 32801 lineto
6788.53 32950.9 lineto
6788.53 33138.4 lineto
6826.02 33288.4 lineto
6863.52 33363.4 lineto
6901.01 33400.9 lineto
6976 33438.4 lineto
stroke
newpath
7725.91 33438.4 moveto
7800.9 33438.4 lineto
7875.89 33400.9 lineto
7913.38 33363.4 lineto
7950.88 33288.4 lineto
7988.37 33138.4 lineto
7988.37 32950.9 lineto
7950.88 32801 lineto
7913.38 32726 lineto
7875.89 32688.5 lineto
7800.9 32651 lineto
7725.91 32651 lineto
7650.92 32688.5 lineto
7613.42 32726 lineto
7575.93 32801 lineto
7538.43 32950.9 lineto
7538.43 33138.4 lineto
7575.93 33288.4 lineto
7613.42 33363.4 lineto
7650.92 33400.9 lineto
7725.91 33438.4 lineto
stroke
newpath
8325.83 32651 moveto
8325.83 33175.9 lineto
stroke
newpath
8325.83 33100.9 moveto
8363.33 33138.4 lineto
8438.32 33175.9 lineto
8550.8 33175.9 lineto
8625.8 33138.4 lineto
8663.29 33063.4 lineto
8663.29 32651 lineto
stroke
newpath
8663.29 33063.4 moveto
8700.79 33138.4 lineto
8775.78 33175.9 lineto
8888.26 33175.9 lineto
8963.25 33138.4 lineto
9000.75 33063.4 lineto
9000.75 32651 lineto
stroke
newpath
9375.7 32651 moveto
9375.7 33175.9 lineto
stroke
newpath
9375.7 33100.9 moveto
9413.2 33138.4 lineto
9488.19 33175.9 lineto
9600.67 33175.9 lineto
9675.66 33138.4 lineto
9713.16 33063.4 lineto
9713.16 32651 lineto
stroke
newpath
9713.16 33063.4 moveto
9750.65 33138.4 lineto
9825.64 33175.9 lineto
9938.13 33175.9 lineto
10013.1 33138.4 lineto
10050.6 33063.4 lineto
10050.6 32651 lineto
stroke
newpath
11587.9 33475.9 moveto
10913 32463.5 lineto
stroke
newpath
12600.3 33438.4 moveto
12675.3 33438.4 lineto
12750.3 33400.9 lineto
12787.8 33363.4 lineto
12825.3 33288.4 lineto
12862.8 33138.4 lineto
12862.8 32950.9 lineto
12825.3 32801 lineto
12787.8 32726 lineto
12750.3 32688.5 lineto
12675.3 32651 lineto
12600.3 32651 lineto
12525.3 32688.5 lineto
12487.8 32726 lineto
12450.3 32801 lineto
12412.8 32950.9 lineto
12412.8 33138.4 lineto
12450.3 33288.4 lineto
12487.8 33363.4 lineto
12525.3 33400.9 lineto
12600.3 33438.4 lineto
stroke
newpath
13200.2 32726 moveto
13237.7 32688.5 lineto
13200.2 32651 lineto
13162.7 32688.5 lineto
13200.2 32726 lineto
13200.2 32651 lineto
stroke
newpath
13987.6 32651 moveto
13537.7 32651 lineto
stroke
newpath
13762.7 32651 moveto
13762.7 33438.4 lineto
13687.7 33325.9 lineto
13612.7 33250.9 lineto
13537.7 33213.4 lineto
stroke
newpath
14287.6 33363.4 moveto
14325.1 33400.9 lineto
14400.1 33438.4 lineto
14587.5 33438.4 lineto
14662.5 33400.9 lineto
14700 33363.4 lineto
14737.5 33288.4 lineto
14737.5 33213.4 lineto
14700 33100.9 lineto
14250.1 32651 lineto
14737.5 32651 lineto
stroke
newpath
15412.4 33438.4 moveto
15262.5 33438.4 lineto
15187.5 33400.9 lineto
15150 33363.4 lineto
15075 33250.9 lineto
15037.5 33100.9 lineto
15037.5 32801 lineto
15075 32726 lineto
15112.5 32688.5 lineto
15187.5 32651 lineto
15337.5 32651 lineto
15412.4 32688.5 lineto
15449.9 32726 lineto
15487.4 32801 lineto
15487.4 32988.4 lineto
15449.9 33063.4 lineto
15412.4 33100.9 lineto
15337.5 33138.4 lineto
15187.5 33138.4 lineto
15112.5 33100.9 lineto
15075 33063.4 lineto
15037.5 32988.4 lineto
stroke
newpath
15974.9 33438.4 moveto
16049.9 33438.4 lineto
16124.9 33400.9 lineto
16162.4 33363.4 lineto
16199.8 33288.4 lineto
16237.3 33138.4 lineto
16237.3 32950.9 lineto
16199.8 32801 lineto
16162.4 32726 lineto
16124.9 32688.5 lineto
16049.9 32651 lineto
15974.9 32651 lineto
15899.9 32688.5 lineto
15862.4 32726 lineto
15824.9 32801 lineto
15787.4 32950.9 lineto
15787.4 33138.4 lineto
15824.9 33288.4 lineto
15862.4 33363.4 lineto
15899.9 33400.9 lineto
15974.9 33438.4 lineto
stroke
newpath
16537.3 33438.4 moveto
16537.3 33288.4 lineto
stroke
newpath
16837.3 33438.4 moveto
16837.3 33288.4 lineto
stroke
newpath
17999.6 32351 moveto
17962.1 32388.5 lineto
17887.1 32501 lineto
17849.6 32576 lineto
17812.1 32688.5 lineto
17774.6 32875.9 lineto
17774.6 33025.9 lineto
17812.1 33213.4 lineto
17849.6 33325.9 lineto
17887.1 33400.9 lineto
17962.1 33513.4 lineto
17999.6 33550.9 lineto
stroke
newpath
18674.5 33438.4 moveto
18299.6 33438.4 lineto
18262.1 33063.4 lineto
18299.6 33100.9 lineto
18374.6 33138.4 lineto
18562.1 33138.4 lineto
18637 33100.9 lineto
18674.5 33063.4 lineto
18712 32988.4 lineto
18712 32801 lineto
18674.5 32726 lineto
18637 32688.5 lineto
18562.1 32651 lineto
18374.6 32651 lineto
18299.6 32688.5 lineto
18262.1 32726 lineto
stroke
newpath
19649.4 32651 moveto
19649.4 33438.4 lineto
stroke
newpath
19986.9 32651 moveto
19986.9 33063.4 lineto
19949.4 33138.4 lineto
19874.4 33175.9 lineto
19761.9 33175.9 lineto
19686.9 33138.4 lineto
19649.4 33100.9 lineto
stroke
newpath
20474.3 32651 moveto
20399.3 32688.5 lineto
20361.8 32726 lineto
20324.3 32801 lineto
20324.3 33025.9 lineto
20361.8 33100.9 lineto
20399.3 33138.4 lineto
20474.3 33175.9 lineto
20586.8 33175.9 lineto
20661.8 33138.4 lineto
20699.3 33100.9 lineto
20736.8 33025.9 lineto
20736.8 32801 lineto
20699.3 32726 lineto
20661.8 32688.5 lineto
20586.8 32651 lineto
20474.3 32651 lineto
stroke
newpath
21186.7 32651 moveto
21111.7 32688.5 lineto
21074.2 32763.5 lineto
21074.2 33438.4 lineto
stroke
newpath
21786.6 32688.5 moveto
21711.7 32651 lineto
21561.7 32651 lineto
21486.7 32688.5 lineto
21449.2 32763.5 lineto
21449.2 33063.4 lineto
21486.7 33138.4 lineto
21561.7 33175.9 lineto
21711.7 33175.9 lineto
21786.6 33138.4 lineto
21824.1 33063.4 lineto
21824.1 32988.4 lineto
21449.2 32913.4 lineto
stroke
newpath
22124.1 32688.5 moveto
22199.1 32651 lineto
22349.1 32651 lineto
22424.1 32688.5 lineto
22461.6 32763.5 lineto
22461.6 32801 lineto
22424.1 32875.9 lineto
22349.1 32913.4 lineto
22236.6 32913.4 lineto
22161.6 32950.9 lineto
22124.1 33025.9 lineto
22124.1 33063.4 lineto
22161.6 33138.4 lineto
22236.6 33175.9 lineto
22349.1 33175.9 lineto
22424.1 33138.4 lineto
stroke
newpath
22724 32351 moveto
22761.5 32388.5 lineto
22836.5 32501 lineto
22874 32576 lineto
22911.5 32688.5 lineto
22949 32875.9 lineto
22949 33025.9 lineto
22911.5 33213.4 lineto
22874 33325.9 lineto
22836.5 33400.9 lineto
22761.5 33513.4 lineto
22724 33550.9 lineto
stroke
newpath
24148.9 32351 moveto
24111.4 32388.5 lineto
24036.4 32501 lineto
23998.9 32576 lineto
23961.4 32688.5 lineto
23923.9 32875.9 lineto
23923.9 33025.9 lineto
23961.4 33213.4 lineto
23998.9 33325.9 lineto
24036.4 33400.9 lineto
24111.4 33513.4 lineto
24148.9 33550.9 lineto
stroke
newpath
24448.8 33175.9 moveto
24448.8 32651 lineto
stroke
newpath
24448.8 33100.9 moveto
24486.3 33138.4 lineto
24561.3 33175.9 lineto
24673.8 33175.9 lineto
24748.8 33138.4 lineto
24786.3 33063.4 lineto
24786.3 32651 lineto
stroke
newpath
25273.7 32651 moveto
25198.7 32688.5 lineto
25161.2 32726 lineto
25123.7 32801 lineto
25123.7 33025.9 lineto
25161.2 33100.9 lineto
25198.7 33138.4 lineto
25273.7 33175.9 lineto
25386.2 33175.9 lineto
25461.2 33138.4 lineto
25498.7 33100.9 lineto
25536.2 33025.9 lineto
25536.2 32801 lineto
25498.7 32726 lineto
25461.2 32688.5 lineto
25386.2 32651 lineto
25273.7 32651 lineto
stroke
newpath
25761.1 33175.9 moveto
26061.1 33175.9 lineto
stroke
newpath
25873.6 33438.4 moveto
25873.6 32763.5 lineto
25911.1 32688.5 lineto
25986.1 32651 lineto
26061.1 32651 lineto
stroke
newpath
26923.5 33175.9 moveto
26923.5 32388.5 lineto
stroke
newpath
26923.5 33138.4 moveto
26998.5 33175.9 lineto
27148.5 33175.9 lineto
27223.5 33138.4 lineto
27261 33100.9 lineto
27298.5 33025.9 lineto
27298.5 32801 lineto
27261 32726 lineto
27223.5 32688.5 lineto
27148.5 32651 lineto
26998.5 32651 lineto
26923.5 32688.5 lineto
stroke
newpath
27748.4 32651 moveto
27673.4 32688.5 lineto
27635.9 32763.5 lineto
27635.9 33438.4 lineto
stroke
newpath
28385.8 32651 moveto
28385.8 33063.4 lineto
28348.3 33138.4 lineto
28273.3 33175.9 lineto
28123.4 33175.9 lineto
28048.4 33138.4 lineto
stroke
newpath
28385.8 32688.5 moveto
28310.8 32651 lineto
28123.4 32651 lineto
28048.4 32688.5 lineto
28010.9 32763.5 lineto
28010.9 32838.5 lineto
28048.4 32913.4 lineto
28123.4 32950.9 lineto
28310.8 32950.9 lineto
28385.8 32988.4 lineto
stroke
newpath
28648.3 33175.9 moveto
28948.3 33175.9 lineto
stroke
newpath
28760.8 33438.4 moveto
28760.8 32763.5 lineto
28798.3 32688.5 lineto
28873.3 32651 lineto
28948.3 32651 lineto
stroke
newpath
29510.7 32688.5 moveto
29435.7 32651 lineto
29285.7 32651 lineto
29210.7 32688.5 lineto
29173.2 32763.5 lineto
29173.2 33063.4 lineto
29210.7 33138.4 lineto
29285.7 33175.9 lineto
29435.7 33175.9 lineto
29510.7 33138.4 lineto
29548.2 33063.4 lineto
29548.2 32988.4 lineto
29173.2 32913.4 lineto
stroke
newpath
30223.1 32651 moveto
30223.1 33438.4 lineto
stroke
newpath
30223.1 32688.5 moveto
30148.1 32651 lineto
29998.1 32651 lineto
29923.1 32688.5 lineto
29885.6 32726 lineto
29848.1 32801 lineto
29848.1 33025.9 lineto
29885.6 33100.9 lineto
29923.1 33138.4 lineto
29998.1 33175.9 lineto
30148.1 33175.9 lineto
30223.1 33138.4 lineto
stroke
newpath
30523.1 32351 moveto
30560.5 32388.5 lineto
30635.5 32501 lineto
30673 32576 lineto
30710.5 32688.5 lineto
30748 32875.9 lineto
30748 33025.9 lineto
30710.5 33213.4 lineto
30673 33325.9 lineto
30635.5 33400.9 lineto
30560.5 33513.4 lineto
30523.1 33550.9 lineto
stroke
showpage
grestore
%%EOF
