%!PS-Adobe-3.0
%%Creator: PCBNEW
%%CreationDate: Sat Apr 22 20:42:14 2023
%%Title: ()
%%Pages: 1
%%PageOrder: Ascend
%%BoundingBox: 0 0 596 842
%%DocumentMedia: A4 595 842 0 () ()
%%Orientation: Landscape
%%EndComments
%%BeginProlog
/line { newpath moveto lineto stroke } bind def
/cir0 { newpath 0 360 arc stroke } bind def
/cir1 { newpath 0 360 arc gsave fill grestore stroke } bind def
/cir2 { newpath 0 360 arc gsave fill grestore stroke } bind def
/arc0 { newpath arc stroke } bind def
/arc1 { newpath 4 index 4 index moveto arc closepath gsave fill
    grestore stroke } bind def
/arc2 { newpath 4 index 4 index moveto arc closepath gsave fill
    grestore stroke } bind def
/poly0 { stroke } bind def
/poly1 { closepath gsave fill grestore stroke } bind def
/poly2 { closepath gsave fill grestore stroke } bind def
/rect0 { rectstroke } bind def
/rect1 { rectfill } bind def
/rect2 { rectfill } bind def
/linemode0 { 0 setlinecap 0 setlinejoin 0 setlinewidth } bind def
/linemode1 { 1 setlinecap 1 setlinejoin } bind def
/dashedline { [200] 100 setdash } bind def
/solidline { [] 0 setdash } bind def
/phantomshow { moveto
    /KicadFont findfont 0.000001 scalefont setfont
    show } bind def
/textshow { gsave
    findfont exch scalefont setfont concat 1 scale 0 0 moveto show
    } bind def
/reencodefont {
  findfont dup length dict begin
  { 1 index /FID ne
    { def }
    { pop pop } ifelse
  } forall
  /Encoding ISOLatin1Encoding def
  currentdict
  end } bind def
/KicadFont /Helvetica reencodefont definefont pop
/KicadFont-Bold /Helvetica-Bold reencodefont definefont pop
/KicadFont-Oblique /Helvetica-Oblique reencodefont definefont pop
/KicadFont-BoldOblique /Helvetica-BoldOblique reencodefont definefont pop
%%EndProlog
%%Page: 1 1
%%BeginPageSetup
gsave
0.0072 0.0072 scale
linemode1
82680 0 translate 90 rotate
85.5422 setlinewidth
%%EndPageSetup
0 0 0 setrgbcolor
42.7711 setlinewidth
newpath
49773.9 80690.1 moveto
49773.9 35061.9 lineto
stroke
0 0 0 setrgbcolor
newpath
49773.9 35061.9 moveto
67156.1 35061.9 lineto
stroke
0 0 0 setrgbcolor
newpath
67156.1 35061.9 moveto
67156.1 80690.1 lineto
stroke
0 0 0 setrgbcolor
newpath
67156.1 80690.1 moveto
49773.9 80690.1 lineto
stroke
85.5422 setlinewidth
17.1084 setlinewidth
newpath
51886.8 52662.2 moveto
52057.9 52491.1 lineto
stroke
newpath
52057.9 52662.2 moveto
51886.8 52491.1 lineto
stroke
newpath
51993.7 50737.5 moveto
52164.8 50566.4 lineto
stroke
newpath
52164.8 50737.5 moveto
51993.7 50566.4 lineto
stroke
newpath
52956.1 52662.2 moveto
53127.2 52491.1 lineto
stroke
newpath
53127.2 52662.2 moveto
52956.1 52491.1 lineto
stroke
newpath
53918.4 40365.5 moveto
54089.5 40194.4 lineto
stroke
newpath
54089.5 40365.5 moveto
53918.4 40194.4 lineto
stroke
newpath
54773.9 38440.8 moveto
54944.9 38269.7 lineto
stroke
newpath
54944.9 38440.8 moveto
54773.9 38269.7 lineto
stroke
newpath
55201.6 50523.6 moveto
55372.6 50352.6 lineto
stroke
newpath
55372.6 50523.6 moveto
55201.6 50352.6 lineto
stroke
newpath
55201.6 48714 moveto
55372.6 48542.9 lineto
stroke
newpath
55372.6 48714 moveto
55201.6 48542.9 lineto
stroke
newpath
56377.8 75224 moveto
56548.9 75052.9 lineto
stroke
newpath
56548.9 75224 moveto
56377.8 75052.9 lineto
stroke
newpath
56484.7 71267.6 moveto
56655.8 71096.6 lineto
stroke
newpath
56655.8 71267.6 moveto
56484.7 71096.6 lineto
stroke
newpath
56912.4 72230 moveto
57083.5 72058.9 lineto
stroke
newpath
57083.5 72230 moveto
56912.4 72058.9 lineto
stroke
newpath
56976.8 51058.3 moveto
57147.9 50887.2 lineto
stroke
newpath
57147.9 51058.3 moveto
56976.8 50887.2 lineto
stroke
newpath
57019.3 52662.2 moveto
57190.4 52491.1 lineto
stroke
newpath
57190.4 52662.2 moveto
57019.3 52491.1 lineto
stroke
newpath
57126.3 74475.5 moveto
57297.3 74304.4 lineto
stroke
newpath
57297.3 74475.5 moveto
57126.3 74304.4 lineto
stroke
newpath
57981.7 55442.3 moveto
58152.8 55271.2 lineto
stroke
newpath
58152.8 55442.3 moveto
57981.7 55271.2 lineto
stroke
newpath
58302.5 73085.4 moveto
58473.6 72914.3 lineto
stroke
newpath
58473.6 73085.4 moveto
58302.5 72914.3 lineto
stroke
newpath
58516.3 71695.3 moveto
58687.4 71524.3 lineto
stroke
newpath
58687.4 71695.3 moveto
58516.3 71524.3 lineto
stroke
newpath
58730.2 74689.3 moveto
58901.3 74518.2 lineto
stroke
newpath
58901.3 74689.3 moveto
58730.2 74518.2 lineto
stroke
newpath
58944 52508 moveto
59115.1 52336.9 lineto
stroke
newpath
59115.1 52508 moveto
58944 52336.9 lineto
stroke
newpath
59906.4 40151.7 moveto
60077.5 39980.6 lineto
stroke
newpath
60077.5 40151.7 moveto
59906.4 39980.6 lineto
stroke
newpath
60334.1 45284.2 moveto
60505.2 45113.1 lineto
stroke
newpath
60505.2 45284.2 moveto
60334.1 45113.1 lineto
stroke
newpath
60441 57474 moveto
60612.1 57302.9 lineto
stroke
newpath
60612.1 57474 moveto
60441 57302.9 lineto
stroke
newpath
60441 49347.4 moveto
60612.1 49176.4 lineto
stroke
newpath
60612.1 49347.4 moveto
60441 49176.4 lineto
stroke
newpath
60481.7 56445.3 moveto
60652.7 56274.2 lineto
stroke
newpath
60652.7 56445.3 moveto
60481.7 56274.2 lineto
stroke
newpath
60548 38868.5 moveto
60719 38697.4 lineto
stroke
newpath
60719 38868.5 moveto
60548 38697.4 lineto
stroke
newpath
60654.9 58008.6 moveto
60826 57837.5 lineto
stroke
newpath
60826 58008.6 moveto
60654.9 57837.5 lineto
stroke
newpath
60975.7 47208.9 moveto
61146.7 47037.8 lineto
stroke
newpath
61146.7 47208.9 moveto
60975.7 47037.8 lineto
stroke
newpath
61296.4 48598.9 moveto
61467.5 48427.9 lineto
stroke
newpath
61467.5 48598.9 moveto
61296.4 48427.9 lineto
stroke
newpath
61403.4 43252.6 moveto
61574.5 43081.5 lineto
stroke
newpath
61574.5 43252.6 moveto
61403.4 43081.5 lineto
stroke
newpath
61831.1 51272.1 moveto
62002.2 51101.1 lineto
stroke
newpath
62002.2 51272.1 moveto
61831.1 51101.1 lineto
stroke
newpath
62044.9 50309.8 moveto
62216 50138.7 lineto
stroke
newpath
62216 50309.8 moveto
62044.9 50138.7 lineto
stroke
newpath
62900.4 52769.1 moveto
63071.4 52598 lineto
stroke
newpath
63071.4 52769.1 moveto
62900.4 52598 lineto
stroke
newpath
63541.9 78324.9 moveto
63713 78153.8 lineto
stroke
newpath
63713 78324.9 moveto
63541.9 78153.8 lineto
stroke
newpath
64611.2 58543.2 moveto
64782.3 58372.1 lineto
stroke
newpath
64782.3 58543.2 moveto
64611.2 58372.1 lineto
stroke
newpath
64825.1 55977 moveto
64996.1 55805.9 lineto
stroke
newpath
64996.1 55977 moveto
64825.1 55805.9 lineto
stroke
newpath
65145.8 50737.5 moveto
65316.9 50566.4 lineto
stroke
newpath
65316.9 50737.5 moveto
65145.8 50566.4 lineto
stroke
newpath
66108.2 61644.1 moveto
66279.3 61473.1 lineto
stroke
newpath
66279.3 61644.1 moveto
66108.2 61473.1 lineto
stroke
25.6627 setlinewidth
52507 40673.5 128.313 cir0
85.5422 setlinewidth
newpath
52293.1 40587.9 moveto
52720.8 40587.9 lineto
stroke
newpath
52293.1 40759 moveto
52720.8 40759 lineto
stroke
52720.8 40673.5 85.5422 270 450 arc0
52293.1 40673.5 85.5422 90 270 arc0
25.6627 setlinewidth
52507 37123.5 128.313 cir0
85.5422 setlinewidth
newpath
52293.1 37037.9 moveto
52720.8 37037.9 lineto
stroke
newpath
52293.1 37209 moveto
52720.8 37209 lineto
stroke
52720.8 37123.5 85.5422 270 450 arc0
52293.1 37123.5 85.5422 90 270 arc0
25.6627 setlinewidth
52507 35797.6 128.313 cir0
85.5422 setlinewidth
newpath
52293.1 35712 moveto
52720.8 35712 lineto
stroke
newpath
52293.1 35883.1 moveto
52720.8 35883.1 lineto
stroke
52720.8 35797.6 85.5422 270 450 arc0
52293.1 35797.6 85.5422 90 270 arc0
25.6627 setlinewidth
58494.9 47516.8 128.313 cir0
85.5422 setlinewidth
newpath
58281.1 47431.3 moveto
58708.8 47431.3 lineto
stroke
newpath
58281.1 47602.4 moveto
58708.8 47602.4 lineto
stroke
58708.8 47516.8 85.5422 270 450 arc0
58281.1 47516.8 85.5422 90 270 arc0
25.6627 setlinewidth
58494.9 43966.8 128.313 cir0
85.5422 setlinewidth
newpath
58281.1 43881.3 moveto
58708.8 43881.3 lineto
stroke
newpath
58281.1 44052.4 moveto
58708.8 44052.4 lineto
stroke
58708.8 43966.8 85.5422 270 450 arc0
58281.1 43966.8 85.5422 90 270 arc0
25.6627 setlinewidth
58494.9 42640.9 128.313 cir0
85.5422 setlinewidth
newpath
58281.1 42555.4 moveto
58708.8 42555.4 lineto
stroke
newpath
58281.1 42726.5 moveto
58708.8 42726.5 lineto
stroke
58708.8 42640.9 85.5422 270 450 arc0
58281.1 42640.9 85.5422 90 270 arc0
25.6627 setlinewidth
58494.9 40673.5 128.313 cir0
85.5422 setlinewidth
newpath
58281.1 40587.9 moveto
58708.8 40587.9 lineto
stroke
newpath
58281.1 40759 moveto
58708.8 40759 lineto
stroke
58708.8 40673.5 85.5422 270 450 arc0
58281.1 40673.5 85.5422 90 270 arc0
25.6627 setlinewidth
58494.9 37123.5 128.313 cir0
85.5422 setlinewidth
newpath
58281.1 37037.9 moveto
58708.8 37037.9 lineto
stroke
newpath
58281.1 37209 moveto
58708.8 37209 lineto
stroke
58708.8 37123.5 85.5422 270 450 arc0
58281.1 37123.5 85.5422 90 270 arc0
25.6627 setlinewidth
58494.9 35797.6 128.313 cir0
85.5422 setlinewidth
newpath
58281.1 35712 moveto
58708.8 35712 lineto
stroke
newpath
58281.1 35883.1 moveto
58708.8 35883.1 lineto
stroke
58708.8 35797.6 85.5422 270 450 arc0
58281.1 35797.6 85.5422 90 270 arc0
25.6627 setlinewidth
64482.9 47516.8 128.313 cir0
85.5422 setlinewidth
newpath
64269 47431.3 moveto
64696.8 47431.3 lineto
stroke
newpath
64269 47602.4 moveto
64696.8 47602.4 lineto
stroke
64696.8 47516.8 85.5422 270 450 arc0
64269 47516.8 85.5422 90 270 arc0
25.6627 setlinewidth
64482.9 43966.8 128.313 cir0
85.5422 setlinewidth
newpath
64269 43881.3 moveto
64696.8 43881.3 lineto
stroke
newpath
64269 44052.4 moveto
64696.8 44052.4 lineto
stroke
64696.8 43966.8 85.5422 270 450 arc0
64269 43966.8 85.5422 90 270 arc0
25.6627 setlinewidth
64482.9 42640.9 128.313 cir0
85.5422 setlinewidth
newpath
64269 42555.4 moveto
64696.8 42555.4 lineto
stroke
newpath
64269 42726.5 moveto
64696.8 42726.5 lineto
stroke
64696.8 42640.9 85.5422 270 450 arc0
64269 42640.9 85.5422 90 270 arc0
25.6627 setlinewidth
64482.9 40673.5 128.313 cir0
85.5422 setlinewidth
newpath
64269 40587.9 moveto
64696.8 40587.9 lineto
stroke
newpath
64269 40759 moveto
64696.8 40759 lineto
stroke
64696.8 40673.5 85.5422 270 450 arc0
64269 40673.5 85.5422 90 270 arc0
25.6627 setlinewidth
64482.9 37123.5 128.313 cir0
85.5422 setlinewidth
newpath
64269 37037.9 moveto
64696.8 37037.9 lineto
stroke
newpath
64269 37209 moveto
64696.8 37209 lineto
stroke
64696.8 37123.5 85.5422 270 450 arc0
64269 37123.5 85.5422 90 270 arc0
25.6627 setlinewidth
64482.9 35797.6 128.313 cir0
85.5422 setlinewidth
newpath
64269 35712 moveto
64696.8 35712 lineto
stroke
newpath
64269 35883.1 moveto
64696.8 35883.1 lineto
stroke
64696.8 35797.6 85.5422 270 450 arc0
64269 35797.6 85.5422 90 270 arc0
29.8756 setlinewidth
newpath
54345.3 74464.7 moveto
54345.3 74166 lineto
stroke
newpath
54195.9 74315.4 moveto
54494.7 74315.4 lineto
stroke
newpath
54345.3 73395.7 moveto
54345.3 73097 lineto
stroke
newpath
54195.9 73246.4 moveto
54494.7 73246.4 lineto
stroke
newpath
54559.1 77266.3 moveto
54559.1 76967.5 lineto
stroke
newpath
54409.8 77116.9 moveto
54708.5 77116.9 lineto
stroke
newpath
54559.1 76197.2 moveto
54559.1 75898.5 lineto
stroke
newpath
54409.8 76047.9 moveto
54708.5 76047.9 lineto
stroke
38.494 setlinewidth
newpath
50996.4 79467.6 moveto
50996.4 79739.8 lineto
50724.2 79739.8 lineto
50724.2 79467.6 lineto
50996.4 79467.6 lineto
poly0
newpath
50996.4 70450.6 moveto
50996.4 70722.8 lineto
50724.2 70722.8 lineto
50724.2 70450.6 lineto
50996.4 70450.6 lineto
poly0
newpath
54255.6 79467.6 moveto
54255.6 79739.8 lineto
53983.4 79739.8 lineto
53983.4 79467.6 lineto
54255.6 79467.6 lineto
poly0
newpath
54255.6 70450.6 moveto
54255.6 70722.8 lineto
53983.4 70722.8 lineto
53983.4 70450.6 lineto
54255.6 70450.6 lineto
poly0
42.7711 setlinewidth
newpath
50862.4 77323.6 moveto
51076.3 77537.5 lineto
50862.4 77751.3 lineto
50648.6 77537.5 lineto
50862.4 77323.6 lineto
poly0
newpath
50862.4 76237.2 moveto
51076.3 76451.1 lineto
50862.4 76664.9 lineto
50648.6 76451.1 lineto
50862.4 76237.2 lineto
poly0
newpath
50862.4 75150.8 moveto
51076.3 75364.7 lineto
50862.4 75578.5 lineto
50648.6 75364.7 lineto
50862.4 75150.8 lineto
poly0
newpath
50862.4 74064.4 moveto
51076.3 74278.3 lineto
50862.4 74492.1 lineto
50648.6 74278.3 lineto
50862.4 74064.4 lineto
poly0
newpath
50862.4 72978.1 moveto
51076.3 73191.9 lineto
50862.4 73405.8 lineto
50648.6 73191.9 lineto
50862.4 72978.1 lineto
poly0
newpath
51607.9 60417 moveto
51821.8 60630.9 lineto
51607.9 60844.7 lineto
51394.1 60630.9 lineto
51607.9 60417 lineto
poly0
newpath
51607.9 53898.7 moveto
51821.8 54112.6 lineto
51607.9 54326.4 lineto
51394.1 54112.6 lineto
51607.9 53898.7 lineto
poly0
newpath
51651.6 42418.5 moveto
51865.4 42632.4 lineto
51651.6 42846.2 lineto
51437.7 42632.4 lineto
51651.6 42418.5 lineto
poly0
newpath
51948.8 77323.6 moveto
52162.7 77537.5 lineto
51948.8 77751.3 lineto
51735 77537.5 lineto
51948.8 77323.6 lineto
poly0
newpath
51948.8 76237.2 moveto
52162.7 76451.1 lineto
51948.8 76664.9 lineto
51735 76451.1 lineto
51948.8 76237.2 lineto
poly0
newpath
51948.8 75150.8 moveto
52162.7 75364.7 lineto
51948.8 75578.5 lineto
51735 75364.7 lineto
51948.8 75150.8 lineto
poly0
newpath
51948.8 74064.4 moveto
52162.7 74278.3 lineto
51948.8 74492.1 lineto
51735 74278.3 lineto
51948.8 74064.4 lineto
poly0
newpath
51948.8 72978.1 moveto
52162.7 73191.9 lineto
51948.8 73405.8 lineto
51735 73191.9 lineto
51948.8 72978.1 lineto
poly0
newpath
52694.3 60417 moveto
52908.2 60630.9 lineto
52694.3 60844.7 lineto
52480.5 60630.9 lineto
52694.3 60417 lineto
poly0
newpath
52694.3 53898.7 moveto
52908.2 54112.6 lineto
52694.3 54326.4 lineto
52480.5 54112.6 lineto
52694.3 53898.7 lineto
poly0
newpath
52720.8 42418.5 moveto
52934.7 42632.4 lineto
52720.8 42846.2 lineto
52507 42632.4 lineto
52720.8 42418.5 lineto
poly0
newpath
53576.3 68508.9 moveto
53790.1 68722.8 lineto
53576.3 68936.6 lineto
53362.4 68722.8 lineto
53576.3 68508.9 lineto
poly0
newpath
53576.3 62307.1 moveto
53790.1 62520.9 lineto
53576.3 62734.8 lineto
53362.4 62520.9 lineto
53576.3 62307.1 lineto
poly0
newpath
53780.7 60417 moveto
53994.6 60630.9 lineto
53780.7 60844.7 lineto
53566.9 60630.9 lineto
53780.7 60417 lineto
poly0
newpath
53780.7 53898.7 moveto
53994.6 54112.6 lineto
53780.7 54326.4 lineto
53566.9 54112.6 lineto
53780.7 53898.7 lineto
poly0
newpath
53790.1 42418.5 moveto
54004 42632.4 lineto
53790.1 42846.2 lineto
53576.3 42632.4 lineto
53790.1 42418.5 lineto
poly0
newpath
54645.5 62307.1 moveto
54859.4 62520.9 lineto
54645.5 62734.8 lineto
54431.7 62520.9 lineto
54645.5 62307.1 lineto
poly0
newpath
54867.1 60417 moveto
55081 60630.9 lineto
54867.1 60844.7 lineto
54653.2 60630.9 lineto
54867.1 60417 lineto
poly0
newpath
54867.1 53898.7 moveto
55081 54112.6 lineto
54867.1 54326.4 lineto
54653.2 54112.6 lineto
54867.1 53898.7 lineto
poly0
newpath
55714.8 68508.9 moveto
55928.7 68722.8 lineto
55714.8 68936.6 lineto
55501 68722.8 lineto
55714.8 68508.9 lineto
poly0
newpath
55714.8 62307.1 moveto
55928.7 62520.9 lineto
55714.8 62734.8 lineto
55501 62520.9 lineto
55714.8 62307.1 lineto
poly0
newpath
55953.5 60417 moveto
56167.3 60630.9 lineto
55953.5 60844.7 lineto
55739.6 60630.9 lineto
55953.5 60417 lineto
poly0
newpath
55953.5 53898.7 moveto
56167.3 54112.6 lineto
55953.5 54326.4 lineto
55739.6 54112.6 lineto
55953.5 53898.7 lineto
poly0
newpath
56839.7 79415.5 moveto
57053.6 79629.4 lineto
56839.7 79843.2 lineto
56625.8 79629.4 lineto
56839.7 79415.5 lineto
poly0
newpath
57039.9 60417 moveto
57253.7 60630.9 lineto
57039.9 60844.7 lineto
56826 60630.9 lineto
57039.9 60417 lineto
poly0
newpath
57039.9 53898.7 moveto
57253.7 54112.6 lineto
57039.9 54326.4 lineto
56826 54112.6 lineto
57039.9 53898.7 lineto
poly0
newpath
57926.1 79415.5 moveto
58139.9 79629.4 lineto
57926.1 79843.2 lineto
57712.2 79629.4 lineto
57926.1 79415.5 lineto
poly0
newpath
58126.3 60417 moveto
58340.1 60630.9 lineto
58126.3 60844.7 lineto
57912.4 60630.9 lineto
58126.3 60417 lineto
poly0
newpath
58126.3 53898.7 moveto
58340.1 54112.6 lineto
58126.3 54326.4 lineto
57912.4 54112.6 lineto
58126.3 53898.7 lineto
poly0
newpath
59012.5 79415.5 moveto
59226.3 79629.4 lineto
59012.5 79843.2 lineto
58798.6 79629.4 lineto
59012.5 79415.5 lineto
poly0
newpath
59212.6 60417 moveto
59426.5 60630.9 lineto
59212.6 60844.7 lineto
58998.8 60630.9 lineto
59212.6 60417 lineto
poly0
newpath
59212.6 53898.7 moveto
59426.5 54112.6 lineto
59212.6 54326.4 lineto
58998.8 54112.6 lineto
59212.6 53898.7 lineto
poly0
newpath
60098.9 79415.5 moveto
60312.7 79629.4 lineto
60098.9 79843.2 lineto
59885 79629.4 lineto
60098.9 79415.5 lineto
poly0
newpath
60299 60417 moveto
60512.9 60630.9 lineto
60299 60844.7 lineto
60085.2 60630.9 lineto
60299 60417 lineto
poly0
newpath
60299 53898.7 moveto
60512.9 54112.6 lineto
60299 54326.4 lineto
60085.2 54112.6 lineto
60299 53898.7 lineto
poly0
newpath
61275.1 68508.9 moveto
61488.9 68722.8 lineto
61275.1 68936.6 lineto
61061.2 68722.8 lineto
61275.1 68508.9 lineto
poly0
newpath
61275.1 62307.1 moveto
61488.9 62520.9 lineto
61275.1 62734.8 lineto
61061.2 62520.9 lineto
61275.1 62307.1 lineto
poly0
newpath
61385.4 60417 moveto
61599.3 60630.9 lineto
61385.4 60844.7 lineto
61171.6 60630.9 lineto
61385.4 60417 lineto
poly0
newpath
61385.4 53898.7 moveto
61599.3 54112.6 lineto
61385.4 54326.4 lineto
61171.6 54112.6 lineto
61385.4 53898.7 lineto
poly0
newpath
62344.3 62307.1 moveto
62558.2 62520.9 lineto
62344.3 62734.8 lineto
62130.5 62520.9 lineto
62344.3 62307.1 lineto
poly0
newpath
62471.8 60417 moveto
62685.7 60630.9 lineto
62471.8 60844.7 lineto
62257.9 60630.9 lineto
62471.8 60417 lineto
poly0
newpath
62471.8 53898.7 moveto
62685.7 54112.6 lineto
62471.8 54326.4 lineto
62257.9 54112.6 lineto
62471.8 53898.7 lineto
poly0
newpath
63096.3 79127.3 moveto
63310.1 79341.1 lineto
63096.3 79555 lineto
62882.4 79341.1 lineto
63096.3 79127.3 lineto
poly0
newpath
63413.6 68508.9 moveto
63627.5 68722.8 lineto
63413.6 68936.6 lineto
63199.8 68722.8 lineto
63413.6 68508.9 lineto
poly0
newpath
63413.6 62307.1 moveto
63627.5 62520.9 lineto
63413.6 62734.8 lineto
63199.8 62520.9 lineto
63413.6 62307.1 lineto
poly0
newpath
63558.2 60417 moveto
63772 60630.9 lineto
63558.2 60844.7 lineto
63344.3 60630.9 lineto
63558.2 60417 lineto
poly0
newpath
63558.2 53898.7 moveto
63772 54112.6 lineto
63558.2 54326.4 lineto
63344.3 54112.6 lineto
63558.2 53898.7 lineto
poly0
newpath
64182.6 79127.3 moveto
64396.5 79341.1 lineto
64182.6 79555 lineto
63968.8 79341.1 lineto
64182.6 79127.3 lineto
poly0
newpath
64644.6 60417 moveto
64858.4 60630.9 lineto
64644.6 60844.7 lineto
64430.7 60630.9 lineto
64644.6 60417 lineto
poly0
newpath
64644.6 53898.7 moveto
64858.4 54112.6 lineto
64644.6 54326.4 lineto
64430.7 54112.6 lineto
64644.6 53898.7 lineto
poly0
newpath
65269 79127.3 moveto
65482.9 79341.1 lineto
65269 79555 lineto
65055.2 79341.1 lineto
65269 79127.3 lineto
poly0
newpath
65731 60417 moveto
65944.8 60630.9 lineto
65731 60844.7 lineto
65517.1 60630.9 lineto
65731 60417 lineto
poly0
newpath
65731 53898.7 moveto
65944.8 54112.6 lineto
65731 54326.4 lineto
65517.1 54112.6 lineto
65731 53898.7 lineto
poly0
64.1567 setlinewidth
newpath
51929.6 66049.6 moveto
52571.1 65408 lineto
stroke
newpath
52571.1 66049.6 moveto
51929.6 65408 lineto
stroke
52250.4 65728.8 320.783 cir0
85.5422 setlinewidth
newpath
52528.4 65450.8 moveto
52528.4 66006.8 lineto
stroke
newpath
51972.3 65450.8 moveto
51972.3 66006.8 lineto
stroke
52250.4 66006.8 278.012 360 540 arc0
52250.4 65450.8 278.012 180 360 arc0
64.1567 setlinewidth
newpath
56719.9 66049.6 moveto
57361.5 65408 lineto
stroke
newpath
57361.5 66049.6 moveto
56719.9 65408 lineto
stroke
57040.7 65728.8 320.783 cir0
85.5422 setlinewidth
newpath
57318.7 65450.8 moveto
57318.7 66006.8 lineto
stroke
newpath
56762.7 65450.8 moveto
56762.7 66006.8 lineto
stroke
57040.7 66006.8 278.012 360 540 arc0
57040.7 65450.8 278.012 180 360 arc0
64.1567 setlinewidth
newpath
59628.4 66049.6 moveto
60269.9 65408 lineto
stroke
newpath
60269.9 66049.6 moveto
59628.4 65408 lineto
stroke
59949.2 65728.8 320.783 cir0
85.5422 setlinewidth
newpath
60227.2 65450.8 moveto
60227.2 66006.8 lineto
stroke
newpath
59671.1 65450.8 moveto
59671.1 66006.8 lineto
stroke
59949.2 66006.8 278.012 360 540 arc0
59949.2 65450.8 278.012 180 360 arc0
64.1567 setlinewidth
newpath
64418.7 66049.6 moveto
65060.3 65408 lineto
stroke
newpath
65060.3 66049.6 moveto
64418.7 65408 lineto
stroke
64739.5 65728.8 320.783 cir0
85.5422 setlinewidth
newpath
65017.5 65450.8 moveto
65017.5 66006.8 lineto
stroke
newpath
64461.5 65450.8 moveto
64461.5 66006.8 lineto
stroke
64739.5 66006.8 278.012 360 540 arc0
64739.5 65450.8 278.012 180 360 arc0
78.7403 setlinewidth
0 0 0 setrgbcolor
0 0 0 setrgbcolor
newpath
50766.8 33818.2 moveto
50766.8 34605.6 lineto
50954.2 34605.6 lineto
51066.7 34568.1 lineto
51141.7 34493.1 lineto
51179.2 34418.1 lineto
51216.7 34268.1 lineto
51216.7 34155.6 lineto
51179.2 34005.6 lineto
51141.7 33930.6 lineto
51066.7 33855.7 lineto
50954.2 33818.2 lineto
50766.8 33818.2 lineto
stroke
newpath
51554.2 33818.2 moveto
51554.2 34343.1 lineto
stroke
newpath
51554.2 34193.1 moveto
51591.7 34268.1 lineto
51629.2 34305.6 lineto
51704.2 34343.1 lineto
51779.1 34343.1 lineto
stroke
newpath
52041.6 33818.2 moveto
52041.6 34343.1 lineto
stroke
newpath
52041.6 34605.6 moveto
52004.1 34568.1 lineto
52041.6 34530.6 lineto
52079.1 34568.1 lineto
52041.6 34605.6 lineto
52041.6 34530.6 lineto
stroke
newpath
52529.1 33818.2 moveto
52454.1 33855.7 lineto
52416.6 33930.6 lineto
52416.6 34605.6 lineto
stroke
newpath
52941.5 33818.2 moveto
52866.5 33855.7 lineto
52829 33930.6 lineto
52829 34605.6 lineto
stroke
newpath
53841.4 33818.2 moveto
53841.4 34605.6 lineto
54103.9 34043.1 lineto
54366.3 34605.6 lineto
54366.3 33818.2 lineto
stroke
newpath
55078.7 33818.2 moveto
55078.7 34230.6 lineto
55041.2 34305.6 lineto
54966.2 34343.1 lineto
54816.3 34343.1 lineto
54741.3 34305.6 lineto
stroke
newpath
55078.7 33855.7 moveto
55003.7 33818.2 lineto
54816.3 33818.2 lineto
54741.3 33855.7 lineto
54703.8 33930.6 lineto
54703.8 34005.6 lineto
54741.3 34080.6 lineto
54816.3 34118.1 lineto
55003.7 34118.1 lineto
55078.7 34155.6 lineto
stroke
newpath
55453.7 34343.1 moveto
55453.7 33555.7 lineto
stroke
newpath
55453.7 34305.6 moveto
55528.7 34343.1 lineto
55678.7 34343.1 lineto
55753.6 34305.6 lineto
55791.1 34268.1 lineto
55828.6 34193.1 lineto
55828.6 33968.1 lineto
55791.1 33893.1 lineto
55753.6 33855.7 lineto
55678.7 33818.2 lineto
55528.7 33818.2 lineto
55453.7 33855.7 lineto
stroke
newpath
56166.1 33893.1 moveto
56203.6 33855.7 lineto
56166.1 33818.2 lineto
56128.6 33855.7 lineto
56166.1 33893.1 lineto
56166.1 33818.2 lineto
stroke
newpath
56166.1 34305.6 moveto
56203.6 34268.1 lineto
56166.1 34230.6 lineto
56128.6 34268.1 lineto
56166.1 34305.6 lineto
56166.1 34230.6 lineto
stroke
17.1084 setlinewidth
newpath
49581.4 32606.4 moveto
49752.5 32435.3 lineto
stroke
newpath
49752.5 32606.4 moveto
49581.4 32435.3 lineto
stroke
85.5422 setlinewidth
78.7403 setlinewidth
0 0 0 setrgbcolor
0 0 0 setrgbcolor
newpath
50916.8 32952 moveto
50991.7 32952 lineto
51066.7 32914.5 lineto
51104.2 32877 lineto
51141.7 32802 lineto
51179.2 32652.1 lineto
51179.2 32464.6 lineto
51141.7 32314.6 lineto
51104.2 32239.6 lineto
51066.7 32202.1 lineto
50991.7 32164.6 lineto
50916.8 32164.6 lineto
50841.8 32202.1 lineto
50804.3 32239.6 lineto
50766.8 32314.6 lineto
50729.3 32464.6 lineto
50729.3 32652.1 lineto
50766.8 32802 lineto
50804.3 32877 lineto
50841.8 32914.5 lineto
50916.8 32952 lineto
stroke
newpath
51516.7 32239.6 moveto
51554.2 32202.1 lineto
51516.7 32164.6 lineto
51479.2 32202.1 lineto
51516.7 32239.6 lineto
51516.7 32164.6 lineto
stroke
newpath
52229.1 32689.5 moveto
52229.1 32164.6 lineto
stroke
newpath
52041.6 32989.5 moveto
51854.1 32427.1 lineto
52341.6 32427.1 lineto
stroke
newpath
52791.5 32952 moveto
52866.5 32952 lineto
52941.5 32914.5 lineto
52979 32877 lineto
53016.5 32802 lineto
53054 32652.1 lineto
53054 32464.6 lineto
53016.5 32314.6 lineto
52979 32239.6 lineto
52941.5 32202.1 lineto
52866.5 32164.6 lineto
52791.5 32164.6 lineto
52716.5 32202.1 lineto
52679 32239.6 lineto
52641.5 32314.6 lineto
52604 32464.6 lineto
52604 32652.1 lineto
52641.5 32802 lineto
52679 32877 lineto
52716.5 32914.5 lineto
52791.5 32952 lineto
stroke
newpath
53541.4 32952 moveto
53616.4 32952 lineto
53691.4 32914.5 lineto
53728.9 32877 lineto
53766.4 32802 lineto
53803.9 32652.1 lineto
53803.9 32464.6 lineto
53766.4 32314.6 lineto
53728.9 32239.6 lineto
53691.4 32202.1 lineto
53616.4 32164.6 lineto
53541.4 32164.6 lineto
53466.4 32202.1 lineto
53428.9 32239.6 lineto
53391.4 32314.6 lineto
53353.9 32464.6 lineto
53353.9 32652.1 lineto
53391.4 32802 lineto
53428.9 32877 lineto
53466.4 32914.5 lineto
53541.4 32952 lineto
stroke
newpath
54141.4 32164.6 moveto
54141.4 32689.5 lineto
stroke
newpath
54141.4 32614.6 moveto
54178.8 32652.1 lineto
54253.8 32689.5 lineto
54366.3 32689.5 lineto
54441.3 32652.1 lineto
54478.8 32577.1 lineto
54478.8 32164.6 lineto
stroke
newpath
54478.8 32577.1 moveto
54516.3 32652.1 lineto
54591.3 32689.5 lineto
54703.8 32689.5 lineto
54778.8 32652.1 lineto
54816.3 32577.1 lineto
54816.3 32164.6 lineto
stroke
newpath
55191.2 32164.6 moveto
55191.2 32689.5 lineto
stroke
newpath
55191.2 32614.6 moveto
55228.7 32652.1 lineto
55303.7 32689.5 lineto
55416.2 32689.5 lineto
55491.2 32652.1 lineto
55528.7 32577.1 lineto
55528.7 32164.6 lineto
stroke
newpath
55528.7 32577.1 moveto
55566.2 32652.1 lineto
55641.2 32689.5 lineto
55753.6 32689.5 lineto
55828.6 32652.1 lineto
55866.1 32577.1 lineto
55866.1 32164.6 lineto
stroke
newpath
57403.4 32989.5 moveto
56728.5 31977.1 lineto
stroke
newpath
58415.8 32952 moveto
58490.8 32952 lineto
58565.8 32914.5 lineto
58603.3 32877 lineto
58640.8 32802 lineto
58678.3 32652.1 lineto
58678.3 32464.6 lineto
58640.8 32314.6 lineto
58603.3 32239.6 lineto
58565.8 32202.1 lineto
58490.8 32164.6 lineto
58415.8 32164.6 lineto
58340.8 32202.1 lineto
58303.3 32239.6 lineto
58265.8 32314.6 lineto
58228.3 32464.6 lineto
58228.3 32652.1 lineto
58265.8 32802 lineto
58303.3 32877 lineto
58340.8 32914.5 lineto
58415.8 32952 lineto
stroke
newpath
59015.7 32239.6 moveto
59053.2 32202.1 lineto
59015.7 32164.6 lineto
58978.2 32202.1 lineto
59015.7 32239.6 lineto
59015.7 32164.6 lineto
stroke
newpath
59540.7 32952 moveto
59615.7 32952 lineto
59690.7 32914.5 lineto
59728.2 32877 lineto
59765.6 32802 lineto
59803.1 32652.1 lineto
59803.1 32464.6 lineto
59765.6 32314.6 lineto
59728.2 32239.6 lineto
59690.7 32202.1 lineto
59615.7 32164.6 lineto
59540.7 32164.6 lineto
59465.7 32202.1 lineto
59428.2 32239.6 lineto
59390.7 32314.6 lineto
59353.2 32464.6 lineto
59353.2 32652.1 lineto
59390.7 32802 lineto
59428.2 32877 lineto
59465.7 32914.5 lineto
59540.7 32952 lineto
stroke
newpath
60553.1 32164.6 moveto
60103.1 32164.6 lineto
stroke
newpath
60328.1 32164.6 moveto
60328.1 32952 lineto
60253.1 32839.5 lineto
60178.1 32764.5 lineto
60103.1 32727 lineto
stroke
newpath
61265.5 32952 moveto
60890.5 32952 lineto
60853 32577.1 lineto
60890.5 32614.6 lineto
60965.5 32652.1 lineto
61153 32652.1 lineto
61228 32614.6 lineto
61265.5 32577.1 lineto
61303 32502.1 lineto
61303 32314.6 lineto
61265.5 32239.6 lineto
61228 32202.1 lineto
61153 32164.6 lineto
60965.5 32164.6 lineto
60890.5 32202.1 lineto
60853 32239.6 lineto
stroke
newpath
61565.4 32952 moveto
62090.4 32952 lineto
61752.9 32164.6 lineto
stroke
newpath
62352.8 32952 moveto
62352.8 32802 lineto
stroke
newpath
62652.8 32952 moveto
62652.8 32802 lineto
stroke
newpath
63815.1 31864.7 moveto
63777.6 31902.1 lineto
63702.7 32014.6 lineto
63665.2 32089.6 lineto
63627.7 32202.1 lineto
63590.2 32389.6 lineto
63590.2 32539.6 lineto
63627.7 32727 lineto
63665.2 32839.5 lineto
63702.7 32914.5 lineto
63777.6 33027 lineto
63815.1 33064.5 lineto
stroke
newpath
64040.1 32952 moveto
64527.6 32952 lineto
64265.1 32652.1 lineto
64377.6 32652.1 lineto
64452.6 32614.6 lineto
64490.1 32577.1 lineto
64527.6 32502.1 lineto
64527.6 32314.6 lineto
64490.1 32239.6 lineto
64452.6 32202.1 lineto
64377.6 32164.6 lineto
64152.6 32164.6 lineto
64077.6 32202.1 lineto
64040.1 32239.6 lineto
stroke
newpath
65202.5 32952 moveto
65052.5 32952 lineto
64977.5 32914.5 lineto
64940 32877 lineto
64865 32764.5 lineto
64827.5 32614.6 lineto
64827.5 32314.6 lineto
64865 32239.6 lineto
64902.5 32202.1 lineto
64977.5 32164.6 lineto
65127.5 32164.6 lineto
65202.5 32202.1 lineto
65240 32239.6 lineto
65277.5 32314.6 lineto
65277.5 32502.1 lineto
65240 32577.1 lineto
65202.5 32614.6 lineto
65127.5 32652.1 lineto
64977.5 32652.1 lineto
64902.5 32614.6 lineto
64865 32577.1 lineto
64827.5 32502.1 lineto
stroke
newpath
66214.8 32164.6 moveto
66214.8 32952 lineto
stroke
newpath
66552.3 32164.6 moveto
66552.3 32577.1 lineto
66514.8 32652.1 lineto
66439.8 32689.5 lineto
66327.3 32689.5 lineto
66252.3 32652.1 lineto
66214.8 32614.6 lineto
stroke
newpath
67039.7 32164.6 moveto
66964.7 32202.1 lineto
66927.3 32239.6 lineto
66889.8 32314.6 lineto
66889.8 32539.6 lineto
66927.3 32614.6 lineto
66964.7 32652.1 lineto
67039.7 32689.5 lineto
67152.2 32689.5 lineto
67227.2 32652.1 lineto
67264.7 32614.6 lineto
67302.2 32539.6 lineto
67302.2 32314.6 lineto
67264.7 32239.6 lineto
67227.2 32202.1 lineto
67152.2 32164.6 lineto
67039.7 32164.6 lineto
stroke
newpath
67752.2 32164.6 moveto
67677.2 32202.1 lineto
67639.7 32277.1 lineto
67639.7 32952 lineto
stroke
newpath
68352.1 32202.1 moveto
68277.1 32164.6 lineto
68127.1 32164.6 lineto
68052.1 32202.1 lineto
68014.6 32277.1 lineto
68014.6 32577.1 lineto
68052.1 32652.1 lineto
68127.1 32689.5 lineto
68277.1 32689.5 lineto
68352.1 32652.1 lineto
68389.6 32577.1 lineto
68389.6 32502.1 lineto
68014.6 32427.1 lineto
stroke
newpath
68689.5 32202.1 moveto
68764.5 32164.6 lineto
68914.5 32164.6 lineto
68989.5 32202.1 lineto
69027 32277.1 lineto
69027 32314.6 lineto
68989.5 32389.6 lineto
68914.5 32427.1 lineto
68802 32427.1 lineto
68727 32464.6 lineto
68689.5 32539.6 lineto
68689.5 32577.1 lineto
68727 32652.1 lineto
68802 32689.5 lineto
68914.5 32689.5 lineto
68989.5 32652.1 lineto
stroke
newpath
69289.5 31864.7 moveto
69327 31902.1 lineto
69401.9 32014.6 lineto
69439.4 32089.6 lineto
69476.9 32202.1 lineto
69514.4 32389.6 lineto
69514.4 32539.6 lineto
69476.9 32727 lineto
69439.4 32839.5 lineto
69401.9 32914.5 lineto
69327 33027 lineto
69289.5 33064.5 lineto
stroke
25.6627 setlinewidth
49624.2 31481.4 128.313 cir0
85.5422 setlinewidth
78.7403 setlinewidth
0 0 0 setrgbcolor
0 0 0 setrgbcolor
newpath
50916.8 31912.6 moveto
50991.7 31912.6 lineto
51066.7 31875.1 lineto
51104.2 31837.7 lineto
51141.7 31762.7 lineto
51179.2 31612.7 lineto
51179.2 31425.2 lineto
51141.7 31275.2 lineto
51104.2 31200.2 lineto
51066.7 31162.7 lineto
50991.7 31125.2 lineto
50916.8 31125.2 lineto
50841.8 31162.7 lineto
50804.3 31200.2 lineto
50766.8 31275.2 lineto
50729.3 31425.2 lineto
50729.3 31612.7 lineto
50766.8 31762.7 lineto
50804.3 31837.7 lineto
50841.8 31875.1 lineto
50916.8 31912.6 lineto
stroke
newpath
51516.7 31200.2 moveto
51554.2 31162.7 lineto
51516.7 31125.2 lineto
51479.2 31162.7 lineto
51516.7 31200.2 lineto
51516.7 31125.2 lineto
stroke
newpath
52229.1 31912.6 moveto
52079.1 31912.6 lineto
52004.1 31875.1 lineto
51966.6 31837.7 lineto
51891.6 31725.2 lineto
51854.1 31575.2 lineto
51854.1 31275.2 lineto
51891.6 31200.2 lineto
51929.1 31162.7 lineto
52004.1 31125.2 lineto
52154.1 31125.2 lineto
52229.1 31162.7 lineto
52266.6 31200.2 lineto
52304.1 31275.2 lineto
52304.1 31462.7 lineto
52266.6 31537.7 lineto
52229.1 31575.2 lineto
52154.1 31612.7 lineto
52004.1 31612.7 lineto
51929.1 31575.2 lineto
51891.6 31537.7 lineto
51854.1 31462.7 lineto
stroke
newpath
52791.5 31912.6 moveto
52866.5 31912.6 lineto
52941.5 31875.1 lineto
52979 31837.7 lineto
53016.5 31762.7 lineto
53054 31612.7 lineto
53054 31425.2 lineto
53016.5 31275.2 lineto
52979 31200.2 lineto
52941.5 31162.7 lineto
52866.5 31125.2 lineto
52791.5 31125.2 lineto
52716.5 31162.7 lineto
52679 31200.2 lineto
52641.5 31275.2 lineto
52604 31425.2 lineto
52604 31612.7 lineto
52641.5 31762.7 lineto
52679 31837.7 lineto
52716.5 31875.1 lineto
52791.5 31912.6 lineto
stroke
newpath
53541.4 31912.6 moveto
53616.4 31912.6 lineto
53691.4 31875.1 lineto
53728.9 31837.7 lineto
53766.4 31762.7 lineto
53803.9 31612.7 lineto
53803.9 31425.2 lineto
53766.4 31275.2 lineto
53728.9 31200.2 lineto
53691.4 31162.7 lineto
53616.4 31125.2 lineto
53541.4 31125.2 lineto
53466.4 31162.7 lineto
53428.9 31200.2 lineto
53391.4 31275.2 lineto
53353.9 31425.2 lineto
53353.9 31612.7 lineto
53391.4 31762.7 lineto
53428.9 31837.7 lineto
53466.4 31875.1 lineto
53541.4 31912.6 lineto
stroke
newpath
54141.4 31125.2 moveto
54141.4 31650.2 lineto
stroke
newpath
54141.4 31575.2 moveto
54178.8 31612.7 lineto
54253.8 31650.2 lineto
54366.3 31650.2 lineto
54441.3 31612.7 lineto
54478.8 31537.7 lineto
54478.8 31125.2 lineto
stroke
newpath
54478.8 31537.7 moveto
54516.3 31612.7 lineto
54591.3 31650.2 lineto
54703.8 31650.2 lineto
54778.8 31612.7 lineto
54816.3 31537.7 lineto
54816.3 31125.2 lineto
stroke
newpath
55191.2 31125.2 moveto
55191.2 31650.2 lineto
stroke
newpath
55191.2 31575.2 moveto
55228.7 31612.7 lineto
55303.7 31650.2 lineto
55416.2 31650.2 lineto
55491.2 31612.7 lineto
55528.7 31537.7 lineto
55528.7 31125.2 lineto
stroke
newpath
55528.7 31537.7 moveto
55566.2 31612.7 lineto
55641.2 31650.2 lineto
55753.6 31650.2 lineto
55828.6 31612.7 lineto
55866.1 31537.7 lineto
55866.1 31125.2 lineto
stroke
newpath
57403.4 31950.1 moveto
56728.5 30937.8 lineto
stroke
newpath
58415.8 31912.6 moveto
58490.8 31912.6 lineto
58565.8 31875.1 lineto
58603.3 31837.7 lineto
58640.8 31762.7 lineto
58678.3 31612.7 lineto
58678.3 31425.2 lineto
58640.8 31275.2 lineto
58603.3 31200.2 lineto
58565.8 31162.7 lineto
58490.8 31125.2 lineto
58415.8 31125.2 lineto
58340.8 31162.7 lineto
58303.3 31200.2 lineto
58265.8 31275.2 lineto
58228.3 31425.2 lineto
58228.3 31612.7 lineto
58265.8 31762.7 lineto
58303.3 31837.7 lineto
58340.8 31875.1 lineto
58415.8 31912.6 lineto
stroke
newpath
59015.7 31200.2 moveto
59053.2 31162.7 lineto
59015.7 31125.2 lineto
58978.2 31162.7 lineto
59015.7 31200.2 lineto
59015.7 31125.2 lineto
stroke
newpath
59540.7 31912.6 moveto
59615.7 31912.6 lineto
59690.7 31875.1 lineto
59728.2 31837.7 lineto
59765.6 31762.7 lineto
59803.1 31612.7 lineto
59803.1 31425.2 lineto
59765.6 31275.2 lineto
59728.2 31200.2 lineto
59690.7 31162.7 lineto
59615.7 31125.2 lineto
59540.7 31125.2 lineto
59465.7 31162.7 lineto
59428.2 31200.2 lineto
59390.7 31275.2 lineto
59353.2 31425.2 lineto
59353.2 31612.7 lineto
59390.7 31762.7 lineto
59428.2 31837.7 lineto
59465.7 31875.1 lineto
59540.7 31912.6 lineto
stroke
newpath
60103.1 31837.7 moveto
60140.6 31875.1 lineto
60215.6 31912.6 lineto
60403.1 31912.6 lineto
60478.1 31875.1 lineto
60515.6 31837.7 lineto
60553.1 31762.7 lineto
60553.1 31687.7 lineto
60515.6 31575.2 lineto
60065.6 31125.2 lineto
60553.1 31125.2 lineto
stroke
newpath
60815.5 31912.6 moveto
61303 31912.6 lineto
61040.5 31612.7 lineto
61153 31612.7 lineto
61228 31575.2 lineto
61265.5 31537.7 lineto
61303 31462.7 lineto
61303 31275.2 lineto
61265.5 31200.2 lineto
61228 31162.7 lineto
61153 31125.2 lineto
60928 31125.2 lineto
60853 31162.7 lineto
60815.5 31200.2 lineto
stroke
newpath
61977.9 31912.6 moveto
61827.9 31912.6 lineto
61752.9 31875.1 lineto
61715.4 31837.7 lineto
61640.4 31725.2 lineto
61602.9 31575.2 lineto
61602.9 31275.2 lineto
61640.4 31200.2 lineto
61677.9 31162.7 lineto
61752.9 31125.2 lineto
61902.9 31125.2 lineto
61977.9 31162.7 lineto
62015.4 31200.2 lineto
62052.9 31275.2 lineto
62052.9 31462.7 lineto
62015.4 31537.7 lineto
61977.9 31575.2 lineto
61902.9 31612.7 lineto
61752.9 31612.7 lineto
61677.9 31575.2 lineto
61640.4 31537.7 lineto
61602.9 31462.7 lineto
stroke
newpath
62352.8 31912.6 moveto
62352.8 31762.7 lineto
stroke
newpath
62652.8 31912.6 moveto
62652.8 31762.7 lineto
stroke
newpath
63815.1 30825.3 moveto
63777.6 30862.8 lineto
63702.7 30975.3 lineto
63665.2 31050.3 lineto
63627.7 31162.7 lineto
63590.2 31350.2 lineto
63590.2 31500.2 lineto
63627.7 31687.7 lineto
63665.2 31800.2 lineto
63702.7 31875.1 lineto
63777.6 31987.6 lineto
63815.1 32025.1 lineto
stroke
newpath
64265.1 31912.6 moveto
64340.1 31912.6 lineto
64415.1 31875.1 lineto
64452.6 31837.7 lineto
64490.1 31762.7 lineto
64527.6 31612.7 lineto
64527.6 31425.2 lineto
64490.1 31275.2 lineto
64452.6 31200.2 lineto
64415.1 31162.7 lineto
64340.1 31125.2 lineto
64265.1 31125.2 lineto
64190.1 31162.7 lineto
64152.6 31200.2 lineto
64115.1 31275.2 lineto
64077.6 31425.2 lineto
64077.6 31612.7 lineto
64115.1 31762.7 lineto
64152.6 31837.7 lineto
64190.1 31875.1 lineto
64265.1 31912.6 lineto
stroke
newpath
65464.9 31125.2 moveto
65464.9 31912.6 lineto
stroke
newpath
65802.4 31125.2 moveto
65802.4 31537.7 lineto
65764.9 31612.7 lineto
65689.9 31650.2 lineto
65577.4 31650.2 lineto
65502.4 31612.7 lineto
65464.9 31575.2 lineto
stroke
newpath
66289.8 31125.2 moveto
66214.8 31162.7 lineto
66177.3 31200.2 lineto
66139.9 31275.2 lineto
66139.9 31500.2 lineto
66177.3 31575.2 lineto
66214.8 31612.7 lineto
66289.8 31650.2 lineto
66402.3 31650.2 lineto
66477.3 31612.7 lineto
66514.8 31575.2 lineto
66552.3 31500.2 lineto
66552.3 31275.2 lineto
66514.8 31200.2 lineto
66477.3 31162.7 lineto
66402.3 31125.2 lineto
66289.8 31125.2 lineto
stroke
newpath
67002.2 31125.2 moveto
66927.3 31162.7 lineto
66889.8 31237.7 lineto
66889.8 31912.6 lineto
stroke
newpath
67602.2 31162.7 moveto
67527.2 31125.2 lineto
67377.2 31125.2 lineto
67302.2 31162.7 lineto
67264.7 31237.7 lineto
67264.7 31537.7 lineto
67302.2 31612.7 lineto
67377.2 31650.2 lineto
67527.2 31650.2 lineto
67602.2 31612.7 lineto
67639.7 31537.7 lineto
67639.7 31462.7 lineto
67264.7 31387.7 lineto
stroke
newpath
67939.6 31162.7 moveto
68014.6 31125.2 lineto
68164.6 31125.2 lineto
68239.6 31162.7 lineto
68277.1 31237.7 lineto
68277.1 31275.2 lineto
68239.6 31350.2 lineto
68164.6 31387.7 lineto
68052.1 31387.7 lineto
67977.1 31425.2 lineto
67939.6 31500.2 lineto
67939.6 31537.7 lineto
67977.1 31612.7 lineto
68052.1 31650.2 lineto
68164.6 31650.2 lineto
68239.6 31612.7 lineto
stroke
newpath
69214.5 31425.2 moveto
69814.4 31425.2 lineto
stroke
newpath
69514.4 31125.2 moveto
69514.4 31725.2 lineto
stroke
newpath
71201.7 31125.2 moveto
70751.8 31125.2 lineto
stroke
newpath
70976.7 31125.2 moveto
70976.7 31912.6 lineto
70901.8 31800.2 lineto
70826.8 31725.2 lineto
70751.8 31687.7 lineto
stroke
newpath
71914.1 31912.6 moveto
71539.2 31912.6 lineto
71501.7 31537.7 lineto
71539.2 31575.2 lineto
71614.2 31612.7 lineto
71801.6 31612.7 lineto
71876.6 31575.2 lineto
71914.1 31537.7 lineto
71951.6 31462.7 lineto
71951.6 31275.2 lineto
71914.1 31200.2 lineto
71876.6 31162.7 lineto
71801.6 31125.2 lineto
71614.2 31125.2 lineto
71539.2 31162.7 lineto
71501.7 31200.2 lineto
stroke
newpath
72851.5 31162.7 moveto
72926.5 31125.2 lineto
73076.5 31125.2 lineto
73151.5 31162.7 lineto
73189 31237.7 lineto
73189 31275.2 lineto
73151.5 31350.2 lineto
73076.5 31387.7 lineto
72964 31387.7 lineto
72889 31425.2 lineto
72851.5 31500.2 lineto
72851.5 31537.7 lineto
72889 31612.7 lineto
72964 31650.2 lineto
73076.5 31650.2 lineto
73151.5 31612.7 lineto
stroke
newpath
73638.9 31125.2 moveto
73563.9 31162.7 lineto
73526.4 31237.7 lineto
73526.4 31912.6 lineto
stroke
newpath
74051.4 31125.2 moveto
73976.4 31162.7 lineto
73938.9 31200.2 lineto
73901.4 31275.2 lineto
73901.4 31500.2 lineto
73938.9 31575.2 lineto
73976.4 31612.7 lineto
74051.4 31650.2 lineto
74163.8 31650.2 lineto
74238.8 31612.7 lineto
74276.3 31575.2 lineto
74313.8 31500.2 lineto
74313.8 31275.2 lineto
74276.3 31200.2 lineto
74238.8 31162.7 lineto
74163.8 31125.2 lineto
74051.4 31125.2 lineto
stroke
newpath
74538.8 31650.2 moveto
74838.8 31650.2 lineto
stroke
newpath
74651.3 31912.6 moveto
74651.3 31237.7 lineto
74688.8 31162.7 lineto
74763.8 31125.2 lineto
74838.8 31125.2 lineto
stroke
newpath
75063.7 31162.7 moveto
75138.7 31125.2 lineto
75288.7 31125.2 lineto
75363.7 31162.7 lineto
75401.2 31237.7 lineto
75401.2 31275.2 lineto
75363.7 31350.2 lineto
75288.7 31387.7 lineto
75176.2 31387.7 lineto
75101.2 31425.2 lineto
75063.7 31500.2 lineto
75063.7 31537.7 lineto
75101.2 31612.7 lineto
75176.2 31650.2 lineto
75288.7 31650.2 lineto
75363.7 31612.7 lineto
stroke
newpath
75663.7 30825.3 moveto
75701.2 30862.8 lineto
75776.1 30975.3 lineto
75813.6 31050.3 lineto
75851.1 31162.7 lineto
75888.6 31350.2 lineto
75888.6 31500.2 lineto
75851.1 31687.7 lineto
75813.6 31800.2 lineto
75776.1 31875.1 lineto
75701.2 31987.6 lineto
75663.7 32025.1 lineto
stroke
29.8756 setlinewidth
newpath
49603.1 30591.5 moveto
49603.1 30292.7 lineto
stroke
newpath
49453.8 30442.1 moveto
49752.5 30442.1 lineto
stroke
85.5422 setlinewidth
78.7403 setlinewidth
0 0 0 setrgbcolor
0 0 0 setrgbcolor
newpath
50916.8 30873.3 moveto
50991.7 30873.3 lineto
51066.7 30835.8 lineto
51104.2 30798.3 lineto
51141.7 30723.3 lineto
51179.2 30573.3 lineto
51179.2 30385.8 lineto
51141.7 30235.9 lineto
51104.2 30160.9 lineto
51066.7 30123.4 lineto
50991.7 30085.9 lineto
50916.8 30085.9 lineto
50841.8 30123.4 lineto
50804.3 30160.9 lineto
50766.8 30235.9 lineto
50729.3 30385.8 lineto
50729.3 30573.3 lineto
50766.8 30723.3 lineto
50804.3 30798.3 lineto
50841.8 30835.8 lineto
50916.8 30873.3 lineto
stroke
newpath
51516.7 30160.9 moveto
51554.2 30123.4 lineto
51516.7 30085.9 lineto
51479.2 30123.4 lineto
51516.7 30160.9 lineto
51516.7 30085.9 lineto
stroke
newpath
52229.1 30873.3 moveto
52079.1 30873.3 lineto
52004.1 30835.8 lineto
51966.6 30798.3 lineto
51891.6 30685.8 lineto
51854.1 30535.8 lineto
51854.1 30235.9 lineto
51891.6 30160.9 lineto
51929.1 30123.4 lineto
52004.1 30085.9 lineto
52154.1 30085.9 lineto
52229.1 30123.4 lineto
52266.6 30160.9 lineto
52304.1 30235.9 lineto
52304.1 30423.3 lineto
52266.6 30498.3 lineto
52229.1 30535.8 lineto
52154.1 30573.3 lineto
52004.1 30573.3 lineto
51929.1 30535.8 lineto
51891.6 30498.3 lineto
51854.1 30423.3 lineto
stroke
newpath
52679 30085.9 moveto
52829 30085.9 lineto
52904 30123.4 lineto
52941.5 30160.9 lineto
53016.5 30273.3 lineto
53054 30423.3 lineto
53054 30723.3 lineto
53016.5 30798.3 lineto
52979 30835.8 lineto
52904 30873.3 lineto
52754 30873.3 lineto
52679 30835.8 lineto
52641.5 30798.3 lineto
52604 30723.3 lineto
52604 30535.8 lineto
52641.5 30460.8 lineto
52679 30423.3 lineto
52754 30385.8 lineto
52904 30385.8 lineto
52979 30423.3 lineto
53016.5 30460.8 lineto
53054 30535.8 lineto
stroke
newpath
53428.9 30085.9 moveto
53578.9 30085.9 lineto
53653.9 30123.4 lineto
53691.4 30160.9 lineto
53766.4 30273.3 lineto
53803.9 30423.3 lineto
53803.9 30723.3 lineto
53766.4 30798.3 lineto
53728.9 30835.8 lineto
53653.9 30873.3 lineto
53503.9 30873.3 lineto
53428.9 30835.8 lineto
53391.4 30798.3 lineto
53353.9 30723.3 lineto
53353.9 30535.8 lineto
53391.4 30460.8 lineto
53428.9 30423.3 lineto
53503.9 30385.8 lineto
53653.9 30385.8 lineto
53728.9 30423.3 lineto
53766.4 30460.8 lineto
53803.9 30535.8 lineto
stroke
newpath
54141.4 30085.9 moveto
54141.4 30610.8 lineto
stroke
newpath
54141.4 30535.8 moveto
54178.8 30573.3 lineto
54253.8 30610.8 lineto
54366.3 30610.8 lineto
54441.3 30573.3 lineto
54478.8 30498.3 lineto
54478.8 30085.9 lineto
stroke
newpath
54478.8 30498.3 moveto
54516.3 30573.3 lineto
54591.3 30610.8 lineto
54703.8 30610.8 lineto
54778.8 30573.3 lineto
54816.3 30498.3 lineto
54816.3 30085.9 lineto
stroke
newpath
55191.2 30085.9 moveto
55191.2 30610.8 lineto
stroke
newpath
55191.2 30535.8 moveto
55228.7 30573.3 lineto
55303.7 30610.8 lineto
55416.2 30610.8 lineto
55491.2 30573.3 lineto
55528.7 30498.3 lineto
55528.7 30085.9 lineto
stroke
newpath
55528.7 30498.3 moveto
55566.2 30573.3 lineto
55641.2 30610.8 lineto
55753.6 30610.8 lineto
55828.6 30573.3 lineto
55866.1 30498.3 lineto
55866.1 30085.9 lineto
stroke
newpath
57403.4 30910.8 moveto
56728.5 29898.4 lineto
stroke
newpath
58415.8 30873.3 moveto
58490.8 30873.3 lineto
58565.8 30835.8 lineto
58603.3 30798.3 lineto
58640.8 30723.3 lineto
58678.3 30573.3 lineto
58678.3 30385.8 lineto
58640.8 30235.9 lineto
58603.3 30160.9 lineto
58565.8 30123.4 lineto
58490.8 30085.9 lineto
58415.8 30085.9 lineto
58340.8 30123.4 lineto
58303.3 30160.9 lineto
58265.8 30235.9 lineto
58228.3 30385.8 lineto
58228.3 30573.3 lineto
58265.8 30723.3 lineto
58303.3 30798.3 lineto
58340.8 30835.8 lineto
58415.8 30873.3 lineto
stroke
newpath
59015.7 30160.9 moveto
59053.2 30123.4 lineto
59015.7 30085.9 lineto
58978.2 30123.4 lineto
59015.7 30160.9 lineto
59015.7 30085.9 lineto
stroke
newpath
59540.7 30873.3 moveto
59615.7 30873.3 lineto
59690.7 30835.8 lineto
59728.2 30798.3 lineto
59765.6 30723.3 lineto
59803.1 30573.3 lineto
59803.1 30385.8 lineto
59765.6 30235.9 lineto
59728.2 30160.9 lineto
59690.7 30123.4 lineto
59615.7 30085.9 lineto
59540.7 30085.9 lineto
59465.7 30123.4 lineto
59428.2 30160.9 lineto
59390.7 30235.9 lineto
59353.2 30385.8 lineto
59353.2 30573.3 lineto
59390.7 30723.3 lineto
59428.2 30798.3 lineto
59465.7 30835.8 lineto
59540.7 30873.3 lineto
stroke
newpath
60103.1 30798.3 moveto
60140.6 30835.8 lineto
60215.6 30873.3 lineto
60403.1 30873.3 lineto
60478.1 30835.8 lineto
60515.6 30798.3 lineto
60553.1 30723.3 lineto
60553.1 30648.3 lineto
60515.6 30535.8 lineto
60065.6 30085.9 lineto
60553.1 30085.9 lineto
stroke
newpath
60815.5 30873.3 moveto
61340.5 30873.3 lineto
61003 30085.9 lineto
stroke
newpath
62015.4 30873.3 moveto
61640.4 30873.3 lineto
61602.9 30498.3 lineto
61640.4 30535.8 lineto
61715.4 30573.3 lineto
61902.9 30573.3 lineto
61977.9 30535.8 lineto
62015.4 30498.3 lineto
62052.9 30423.3 lineto
62052.9 30235.9 lineto
62015.4 30160.9 lineto
61977.9 30123.4 lineto
61902.9 30085.9 lineto
61715.4 30085.9 lineto
61640.4 30123.4 lineto
61602.9 30160.9 lineto
stroke
newpath
62352.8 30873.3 moveto
62352.8 30723.3 lineto
stroke
newpath
62652.8 30873.3 moveto
62652.8 30723.3 lineto
stroke
newpath
63815.1 29785.9 moveto
63777.6 29823.4 lineto
63702.7 29935.9 lineto
63665.2 30010.9 lineto
63627.7 30123.4 lineto
63590.2 30310.8 lineto
63590.2 30460.8 lineto
63627.7 30648.3 lineto
63665.2 30760.8 lineto
63702.7 30835.8 lineto
63777.6 30948.3 lineto
63815.1 30985.8 lineto
stroke
newpath
64452.6 30610.8 moveto
64452.6 30085.9 lineto
stroke
newpath
64265.1 30910.8 moveto
64077.6 30348.3 lineto
64565 30348.3 lineto
stroke
newpath
65464.9 30085.9 moveto
65464.9 30873.3 lineto
stroke
newpath
65802.4 30085.9 moveto
65802.4 30498.3 lineto
65764.9 30573.3 lineto
65689.9 30610.8 lineto
65577.4 30610.8 lineto
65502.4 30573.3 lineto
65464.9 30535.8 lineto
stroke
newpath
66289.8 30085.9 moveto
66214.8 30123.4 lineto
66177.3 30160.9 lineto
66139.9 30235.9 lineto
66139.9 30460.8 lineto
66177.3 30535.8 lineto
66214.8 30573.3 lineto
66289.8 30610.8 lineto
66402.3 30610.8 lineto
66477.3 30573.3 lineto
66514.8 30535.8 lineto
66552.3 30460.8 lineto
66552.3 30235.9 lineto
66514.8 30160.9 lineto
66477.3 30123.4 lineto
66402.3 30085.9 lineto
66289.8 30085.9 lineto
stroke
newpath
67002.2 30085.9 moveto
66927.3 30123.4 lineto
66889.8 30198.4 lineto
66889.8 30873.3 lineto
stroke
newpath
67602.2 30123.4 moveto
67527.2 30085.9 lineto
67377.2 30085.9 lineto
67302.2 30123.4 lineto
67264.7 30198.4 lineto
67264.7 30498.3 lineto
67302.2 30573.3 lineto
67377.2 30610.8 lineto
67527.2 30610.8 lineto
67602.2 30573.3 lineto
67639.7 30498.3 lineto
67639.7 30423.3 lineto
67264.7 30348.3 lineto
stroke
newpath
67939.6 30123.4 moveto
68014.6 30085.9 lineto
68164.6 30085.9 lineto
68239.6 30123.4 lineto
68277.1 30198.4 lineto
68277.1 30235.9 lineto
68239.6 30310.8 lineto
68164.6 30348.3 lineto
68052.1 30348.3 lineto
67977.1 30385.8 lineto
67939.6 30460.8 lineto
67939.6 30498.3 lineto
67977.1 30573.3 lineto
68052.1 30610.8 lineto
68164.6 30610.8 lineto
68239.6 30573.3 lineto
stroke
newpath
68539.6 29785.9 moveto
68577 29823.4 lineto
68652 29935.9 lineto
68689.5 30010.9 lineto
68727 30123.4 lineto
68764.5 30310.8 lineto
68764.5 30460.8 lineto
68727 30648.3 lineto
68689.5 30760.8 lineto
68652 30835.8 lineto
68577 30948.3 lineto
68539.6 30985.8 lineto
stroke
38.494 setlinewidth
newpath
49696.2 29266.6 moveto
49696.2 29538.8 lineto
49424 29538.8 lineto
49424 29266.6 lineto
49696.2 29266.6 lineto
poly0
85.5422 setlinewidth
78.7403 setlinewidth
0 0 0 setrgbcolor
0 0 0 setrgbcolor
newpath
50916.8 29833.9 moveto
50991.7 29833.9 lineto
51066.7 29796.4 lineto
51104.2 29758.9 lineto
51141.7 29683.9 lineto
51179.2 29533.9 lineto
51179.2 29346.5 lineto
51141.7 29196.5 lineto
51104.2 29121.5 lineto
51066.7 29084 lineto
50991.7 29046.5 lineto
50916.8 29046.5 lineto
50841.8 29084 lineto
50804.3 29121.5 lineto
50766.8 29196.5 lineto
50729.3 29346.5 lineto
50729.3 29533.9 lineto
50766.8 29683.9 lineto
50804.3 29758.9 lineto
50841.8 29796.4 lineto
50916.8 29833.9 lineto
stroke
newpath
51516.7 29121.5 moveto
51554.2 29084 lineto
51516.7 29046.5 lineto
51479.2 29084 lineto
51516.7 29121.5 lineto
51516.7 29046.5 lineto
stroke
newpath
51929.1 29046.5 moveto
52079.1 29046.5 lineto
52154.1 29084 lineto
52191.6 29121.5 lineto
52266.6 29234 lineto
52304.1 29384 lineto
52304.1 29683.9 lineto
52266.6 29758.9 lineto
52229.1 29796.4 lineto
52154.1 29833.9 lineto
52004.1 29833.9 lineto
51929.1 29796.4 lineto
51891.6 29758.9 lineto
51854.1 29683.9 lineto
51854.1 29496.4 lineto
51891.6 29421.5 lineto
51929.1 29384 lineto
52004.1 29346.5 lineto
52154.1 29346.5 lineto
52229.1 29384 lineto
52266.6 29421.5 lineto
52304.1 29496.4 lineto
stroke
newpath
52791.5 29833.9 moveto
52866.5 29833.9 lineto
52941.5 29796.4 lineto
52979 29758.9 lineto
53016.5 29683.9 lineto
53054 29533.9 lineto
53054 29346.5 lineto
53016.5 29196.5 lineto
52979 29121.5 lineto
52941.5 29084 lineto
52866.5 29046.5 lineto
52791.5 29046.5 lineto
52716.5 29084 lineto
52679 29121.5 lineto
52641.5 29196.5 lineto
52604 29346.5 lineto
52604 29533.9 lineto
52641.5 29683.9 lineto
52679 29758.9 lineto
52716.5 29796.4 lineto
52791.5 29833.9 lineto
stroke
newpath
53541.4 29833.9 moveto
53616.4 29833.9 lineto
53691.4 29796.4 lineto
53728.9 29758.9 lineto
53766.4 29683.9 lineto
53803.9 29533.9 lineto
53803.9 29346.5 lineto
53766.4 29196.5 lineto
53728.9 29121.5 lineto
53691.4 29084 lineto
53616.4 29046.5 lineto
53541.4 29046.5 lineto
53466.4 29084 lineto
53428.9 29121.5 lineto
53391.4 29196.5 lineto
53353.9 29346.5 lineto
53353.9 29533.9 lineto
53391.4 29683.9 lineto
53428.9 29758.9 lineto
53466.4 29796.4 lineto
53541.4 29833.9 lineto
stroke
newpath
54141.4 29046.5 moveto
54141.4 29571.4 lineto
stroke
newpath
54141.4 29496.4 moveto
54178.8 29533.9 lineto
54253.8 29571.4 lineto
54366.3 29571.4 lineto
54441.3 29533.9 lineto
54478.8 29459 lineto
54478.8 29046.5 lineto
stroke
newpath
54478.8 29459 moveto
54516.3 29533.9 lineto
54591.3 29571.4 lineto
54703.8 29571.4 lineto
54778.8 29533.9 lineto
54816.3 29459 lineto
54816.3 29046.5 lineto
stroke
newpath
55191.2 29046.5 moveto
55191.2 29571.4 lineto
stroke
newpath
55191.2 29496.4 moveto
55228.7 29533.9 lineto
55303.7 29571.4 lineto
55416.2 29571.4 lineto
55491.2 29533.9 lineto
55528.7 29459 lineto
55528.7 29046.5 lineto
stroke
newpath
55528.7 29459 moveto
55566.2 29533.9 lineto
55641.2 29571.4 lineto
55753.6 29571.4 lineto
55828.6 29533.9 lineto
55866.1 29459 lineto
55866.1 29046.5 lineto
stroke
newpath
57403.4 29871.4 moveto
56728.5 28859 lineto
stroke
newpath
58415.8 29833.9 moveto
58490.8 29833.9 lineto
58565.8 29796.4 lineto
58603.3 29758.9 lineto
58640.8 29683.9 lineto
58678.3 29533.9 lineto
58678.3 29346.5 lineto
58640.8 29196.5 lineto
58603.3 29121.5 lineto
58565.8 29084 lineto
58490.8 29046.5 lineto
58415.8 29046.5 lineto
58340.8 29084 lineto
58303.3 29121.5 lineto
58265.8 29196.5 lineto
58228.3 29346.5 lineto
58228.3 29533.9 lineto
58265.8 29683.9 lineto
58303.3 29758.9 lineto
58340.8 29796.4 lineto
58415.8 29833.9 lineto
stroke
newpath
59015.7 29121.5 moveto
59053.2 29084 lineto
59015.7 29046.5 lineto
58978.2 29084 lineto
59015.7 29121.5 lineto
59015.7 29046.5 lineto
stroke
newpath
59540.7 29833.9 moveto
59615.7 29833.9 lineto
59690.7 29796.4 lineto
59728.2 29758.9 lineto
59765.6 29683.9 lineto
59803.1 29533.9 lineto
59803.1 29346.5 lineto
59765.6 29196.5 lineto
59728.2 29121.5 lineto
59690.7 29084 lineto
59615.7 29046.5 lineto
59540.7 29046.5 lineto
59465.7 29084 lineto
59428.2 29121.5 lineto
59390.7 29196.5 lineto
59353.2 29346.5 lineto
59353.2 29533.9 lineto
59390.7 29683.9 lineto
59428.2 29758.9 lineto
59465.7 29796.4 lineto
59540.7 29833.9 lineto
stroke
newpath
60065.6 29833.9 moveto
60553.1 29833.9 lineto
60290.6 29533.9 lineto
60403.1 29533.9 lineto
60478.1 29496.4 lineto
60515.6 29459 lineto
60553.1 29384 lineto
60553.1 29196.5 lineto
60515.6 29121.5 lineto
60478.1 29084 lineto
60403.1 29046.5 lineto
60178.1 29046.5 lineto
60103.1 29084 lineto
60065.6 29121.5 lineto
stroke
newpath
61265.5 29833.9 moveto
60890.5 29833.9 lineto
60853 29459 lineto
60890.5 29496.4 lineto
60965.5 29533.9 lineto
61153 29533.9 lineto
61228 29496.4 lineto
61265.5 29459 lineto
61303 29384 lineto
61303 29196.5 lineto
61265.5 29121.5 lineto
61228 29084 lineto
61153 29046.5 lineto
60965.5 29046.5 lineto
60890.5 29084 lineto
60853 29121.5 lineto
stroke
newpath
61977.9 29571.4 moveto
61977.9 29046.5 lineto
stroke
newpath
61790.4 29871.4 moveto
61602.9 29309 lineto
62090.4 29309 lineto
stroke
newpath
62352.8 29833.9 moveto
62352.8 29683.9 lineto
stroke
newpath
62652.8 29833.9 moveto
62652.8 29683.9 lineto
stroke
newpath
63815.1 28746.5 moveto
63777.6 28784 lineto
63702.7 28896.5 lineto
63665.2 28971.5 lineto
63627.7 29084 lineto
63590.2 29271.5 lineto
63590.2 29421.5 lineto
63627.7 29608.9 lineto
63665.2 29721.4 lineto
63702.7 29796.4 lineto
63777.6 29908.9 lineto
63815.1 29946.4 lineto
stroke
newpath
64452.6 29571.4 moveto
64452.6 29046.5 lineto
stroke
newpath
64265.1 29871.4 moveto
64077.6 29309 lineto
64565 29309 lineto
stroke
newpath
65464.9 29046.5 moveto
65464.9 29833.9 lineto
stroke
newpath
65802.4 29046.5 moveto
65802.4 29459 lineto
65764.9 29533.9 lineto
65689.9 29571.4 lineto
65577.4 29571.4 lineto
65502.4 29533.9 lineto
65464.9 29496.4 lineto
stroke
newpath
66289.8 29046.5 moveto
66214.8 29084 lineto
66177.3 29121.5 lineto
66139.9 29196.5 lineto
66139.9 29421.5 lineto
66177.3 29496.4 lineto
66214.8 29533.9 lineto
66289.8 29571.4 lineto
66402.3 29571.4 lineto
66477.3 29533.9 lineto
66514.8 29496.4 lineto
66552.3 29421.5 lineto
66552.3 29196.5 lineto
66514.8 29121.5 lineto
66477.3 29084 lineto
66402.3 29046.5 lineto
66289.8 29046.5 lineto
stroke
newpath
67002.2 29046.5 moveto
66927.3 29084 lineto
66889.8 29159 lineto
66889.8 29833.9 lineto
stroke
newpath
67602.2 29084 moveto
67527.2 29046.5 lineto
67377.2 29046.5 lineto
67302.2 29084 lineto
67264.7 29159 lineto
67264.7 29459 lineto
67302.2 29533.9 lineto
67377.2 29571.4 lineto
67527.2 29571.4 lineto
67602.2 29533.9 lineto
67639.7 29459 lineto
67639.7 29384 lineto
67264.7 29309 lineto
stroke
newpath
67939.6 29084 moveto
68014.6 29046.5 lineto
68164.6 29046.5 lineto
68239.6 29084 lineto
68277.1 29159 lineto
68277.1 29196.5 lineto
68239.6 29271.5 lineto
68164.6 29309 lineto
68052.1 29309 lineto
67977.1 29346.5 lineto
67939.6 29421.5 lineto
67939.6 29459 lineto
67977.1 29533.9 lineto
68052.1 29571.4 lineto
68164.6 29571.4 lineto
68239.6 29533.9 lineto
stroke
newpath
68539.6 28746.5 moveto
68577 28784 lineto
68652 28896.5 lineto
68689.5 28971.5 lineto
68727 29084 lineto
68764.5 29271.5 lineto
68764.5 29421.5 lineto
68727 29608.9 lineto
68689.5 29721.4 lineto
68652 29796.4 lineto
68577 29908.9 lineto
68539.6 29946.4 lineto
stroke
42.7711 setlinewidth
newpath
49538.7 28149.5 moveto
49752.5 28363.3 lineto
49538.7 28577.2 lineto
49324.8 28363.3 lineto
49538.7 28149.5 lineto
poly0
85.5422 setlinewidth
78.7403 setlinewidth
0 0 0 setrgbcolor
0 0 0 setrgbcolor
newpath
51179.2 28007.1 moveto
50729.3 28007.1 lineto
stroke
newpath
50954.2 28007.1 moveto
50954.2 28794.5 lineto
50879.3 28682 lineto
50804.3 28607.1 lineto
50729.3 28569.6 lineto
stroke
newpath
51516.7 28082.1 moveto
51554.2 28044.6 lineto
51516.7 28007.1 lineto
51479.2 28044.6 lineto
51516.7 28082.1 lineto
51516.7 28007.1 lineto
stroke
newpath
52041.6 28794.5 moveto
52116.6 28794.5 lineto
52191.6 28757 lineto
52229.1 28719.5 lineto
52266.6 28644.6 lineto
52304.1 28494.6 lineto
52304.1 28307.1 lineto
52266.6 28157.1 lineto
52229.1 28082.1 lineto
52191.6 28044.6 lineto
52116.6 28007.1 lineto
52041.6 28007.1 lineto
51966.6 28044.6 lineto
51929.1 28082.1 lineto
51891.6 28157.1 lineto
51854.1 28307.1 lineto
51854.1 28494.6 lineto
51891.6 28644.6 lineto
51929.1 28719.5 lineto
51966.6 28757 lineto
52041.6 28794.5 lineto
stroke
newpath
52791.5 28794.5 moveto
52866.5 28794.5 lineto
52941.5 28757 lineto
52979 28719.5 lineto
53016.5 28644.6 lineto
53054 28494.6 lineto
53054 28307.1 lineto
53016.5 28157.1 lineto
52979 28082.1 lineto
52941.5 28044.6 lineto
52866.5 28007.1 lineto
52791.5 28007.1 lineto
52716.5 28044.6 lineto
52679 28082.1 lineto
52641.5 28157.1 lineto
52604 28307.1 lineto
52604 28494.6 lineto
52641.5 28644.6 lineto
52679 28719.5 lineto
52716.5 28757 lineto
52791.5 28794.5 lineto
stroke
newpath
53541.4 28794.5 moveto
53616.4 28794.5 lineto
53691.4 28757 lineto
53728.9 28719.5 lineto
53766.4 28644.6 lineto
53803.9 28494.6 lineto
53803.9 28307.1 lineto
53766.4 28157.1 lineto
53728.9 28082.1 lineto
53691.4 28044.6 lineto
53616.4 28007.1 lineto
53541.4 28007.1 lineto
53466.4 28044.6 lineto
53428.9 28082.1 lineto
53391.4 28157.1 lineto
53353.9 28307.1 lineto
53353.9 28494.6 lineto
53391.4 28644.6 lineto
53428.9 28719.5 lineto
53466.4 28757 lineto
53541.4 28794.5 lineto
stroke
newpath
54141.4 28007.1 moveto
54141.4 28532.1 lineto
stroke
newpath
54141.4 28457.1 moveto
54178.8 28494.6 lineto
54253.8 28532.1 lineto
54366.3 28532.1 lineto
54441.3 28494.6 lineto
54478.8 28419.6 lineto
54478.8 28007.1 lineto
stroke
newpath
54478.8 28419.6 moveto
54516.3 28494.6 lineto
54591.3 28532.1 lineto
54703.8 28532.1 lineto
54778.8 28494.6 lineto
54816.3 28419.6 lineto
54816.3 28007.1 lineto
stroke
newpath
55191.2 28007.1 moveto
55191.2 28532.1 lineto
stroke
newpath
55191.2 28457.1 moveto
55228.7 28494.6 lineto
55303.7 28532.1 lineto
55416.2 28532.1 lineto
55491.2 28494.6 lineto
55528.7 28419.6 lineto
55528.7 28007.1 lineto
stroke
newpath
55528.7 28419.6 moveto
55566.2 28494.6 lineto
55641.2 28532.1 lineto
55753.6 28532.1 lineto
55828.6 28494.6 lineto
55866.1 28419.6 lineto
55866.1 28007.1 lineto
stroke
newpath
57403.4 28832 moveto
56728.5 27819.7 lineto
stroke
newpath
58415.8 28794.5 moveto
58490.8 28794.5 lineto
58565.8 28757 lineto
58603.3 28719.5 lineto
58640.8 28644.6 lineto
58678.3 28494.6 lineto
58678.3 28307.1 lineto
58640.8 28157.1 lineto
58603.3 28082.1 lineto
58565.8 28044.6 lineto
58490.8 28007.1 lineto
58415.8 28007.1 lineto
58340.8 28044.6 lineto
58303.3 28082.1 lineto
58265.8 28157.1 lineto
58228.3 28307.1 lineto
58228.3 28494.6 lineto
58265.8 28644.6 lineto
58303.3 28719.5 lineto
58340.8 28757 lineto
58415.8 28794.5 lineto
stroke
newpath
59015.7 28082.1 moveto
59053.2 28044.6 lineto
59015.7 28007.1 lineto
58978.2 28044.6 lineto
59015.7 28082.1 lineto
59015.7 28007.1 lineto
stroke
newpath
59540.7 28794.5 moveto
59615.7 28794.5 lineto
59690.7 28757 lineto
59728.2 28719.5 lineto
59765.6 28644.6 lineto
59803.1 28494.6 lineto
59803.1 28307.1 lineto
59765.6 28157.1 lineto
59728.2 28082.1 lineto
59690.7 28044.6 lineto
59615.7 28007.1 lineto
59540.7 28007.1 lineto
59465.7 28044.6 lineto
59428.2 28082.1 lineto
59390.7 28157.1 lineto
59353.2 28307.1 lineto
59353.2 28494.6 lineto
59390.7 28644.6 lineto
59428.2 28719.5 lineto
59465.7 28757 lineto
59540.7 28794.5 lineto
stroke
newpath
60065.6 28794.5 moveto
60553.1 28794.5 lineto
60290.6 28494.6 lineto
60403.1 28494.6 lineto
60478.1 28457.1 lineto
60515.6 28419.6 lineto
60553.1 28344.6 lineto
60553.1 28157.1 lineto
60515.6 28082.1 lineto
60478.1 28044.6 lineto
60403.1 28007.1 lineto
60178.1 28007.1 lineto
60103.1 28044.6 lineto
60065.6 28082.1 lineto
stroke
newpath
60928 28007.1 moveto
61078 28007.1 lineto
61153 28044.6 lineto
61190.5 28082.1 lineto
61265.5 28194.6 lineto
61303 28344.6 lineto
61303 28644.6 lineto
61265.5 28719.5 lineto
61228 28757 lineto
61153 28794.5 lineto
61003 28794.5 lineto
60928 28757 lineto
60890.5 28719.5 lineto
60853 28644.6 lineto
60853 28457.1 lineto
60890.5 28382.1 lineto
60928 28344.6 lineto
61003 28307.1 lineto
61153 28307.1 lineto
61228 28344.6 lineto
61265.5 28382.1 lineto
61303 28457.1 lineto
stroke
newpath
61977.9 28532.1 moveto
61977.9 28007.1 lineto
stroke
newpath
61790.4 28832 moveto
61602.9 28269.6 lineto
62090.4 28269.6 lineto
stroke
newpath
62352.8 28794.5 moveto
62352.8 28644.6 lineto
stroke
newpath
62652.8 28794.5 moveto
62652.8 28644.6 lineto
stroke
newpath
63815.1 27707.2 moveto
63777.6 27744.7 lineto
63702.7 27857.1 lineto
63665.2 27932.1 lineto
63627.7 28044.6 lineto
63590.2 28232.1 lineto
63590.2 28382.1 lineto
63627.7 28569.6 lineto
63665.2 28682 lineto
63702.7 28757 lineto
63777.6 28869.5 lineto
63815.1 28907 lineto
stroke
newpath
64490.1 28794.5 moveto
64115.1 28794.5 lineto
64077.6 28419.6 lineto
64115.1 28457.1 lineto
64190.1 28494.6 lineto
64377.6 28494.6 lineto
64452.6 28457.1 lineto
64490.1 28419.6 lineto
64527.6 28344.6 lineto
64527.6 28157.1 lineto
64490.1 28082.1 lineto
64452.6 28044.6 lineto
64377.6 28007.1 lineto
64190.1 28007.1 lineto
64115.1 28044.6 lineto
64077.6 28082.1 lineto
stroke
newpath
64977.5 28457.1 moveto
64902.5 28494.6 lineto
64865 28532.1 lineto
64827.5 28607.1 lineto
64827.5 28644.6 lineto
64865 28719.5 lineto
64902.5 28757 lineto
64977.5 28794.5 lineto
65127.5 28794.5 lineto
65202.5 28757 lineto
65240 28719.5 lineto
65277.5 28644.6 lineto
65277.5 28607.1 lineto
65240 28532.1 lineto
65202.5 28494.6 lineto
65127.5 28457.1 lineto
64977.5 28457.1 lineto
64902.5 28419.6 lineto
64865 28382.1 lineto
64827.5 28307.1 lineto
64827.5 28157.1 lineto
64865 28082.1 lineto
64902.5 28044.6 lineto
64977.5 28007.1 lineto
65127.5 28007.1 lineto
65202.5 28044.6 lineto
65240 28082.1 lineto
65277.5 28157.1 lineto
65277.5 28307.1 lineto
65240 28382.1 lineto
65202.5 28419.6 lineto
65127.5 28457.1 lineto
stroke
newpath
66214.8 28007.1 moveto
66214.8 28794.5 lineto
stroke
newpath
66552.3 28007.1 moveto
66552.3 28419.6 lineto
66514.8 28494.6 lineto
66439.8 28532.1 lineto
66327.3 28532.1 lineto
66252.3 28494.6 lineto
66214.8 28457.1 lineto
stroke
newpath
67039.7 28007.1 moveto
66964.7 28044.6 lineto
66927.3 28082.1 lineto
66889.8 28157.1 lineto
66889.8 28382.1 lineto
66927.3 28457.1 lineto
66964.7 28494.6 lineto
67039.7 28532.1 lineto
67152.2 28532.1 lineto
67227.2 28494.6 lineto
67264.7 28457.1 lineto
67302.2 28382.1 lineto
67302.2 28157.1 lineto
67264.7 28082.1 lineto
67227.2 28044.6 lineto
67152.2 28007.1 lineto
67039.7 28007.1 lineto
stroke
newpath
67752.2 28007.1 moveto
67677.2 28044.6 lineto
67639.7 28119.6 lineto
67639.7 28794.5 lineto
stroke
newpath
68352.1 28044.6 moveto
68277.1 28007.1 lineto
68127.1 28007.1 lineto
68052.1 28044.6 lineto
68014.6 28119.6 lineto
68014.6 28419.6 lineto
68052.1 28494.6 lineto
68127.1 28532.1 lineto
68277.1 28532.1 lineto
68352.1 28494.6 lineto
68389.6 28419.6 lineto
68389.6 28344.6 lineto
68014.6 28269.6 lineto
stroke
newpath
68689.5 28044.6 moveto
68764.5 28007.1 lineto
68914.5 28007.1 lineto
68989.5 28044.6 lineto
69027 28119.6 lineto
69027 28157.1 lineto
68989.5 28232.1 lineto
68914.5 28269.6 lineto
68802 28269.6 lineto
68727 28307.1 lineto
68689.5 28382.1 lineto
68689.5 28419.6 lineto
68727 28494.6 lineto
68802 28532.1 lineto
68914.5 28532.1 lineto
68989.5 28494.6 lineto
stroke
newpath
69289.5 27707.2 moveto
69327 27744.7 lineto
69401.9 27857.1 lineto
69439.4 27932.1 lineto
69476.9 28044.6 lineto
69514.4 28232.1 lineto
69514.4 28382.1 lineto
69476.9 28569.6 lineto
69439.4 28682 lineto
69401.9 28757 lineto
69327 28869.5 lineto
69289.5 28907 lineto
stroke
64.1567 setlinewidth
newpath
49111 27644.7 moveto
49752.5 27003.2 lineto
stroke
newpath
49752.5 27644.7 moveto
49111 27003.2 lineto
stroke
49431.7 27324 320.783 cir0
85.5422 setlinewidth
78.7403 setlinewidth
0 0 0 setrgbcolor
0 0 0 setrgbcolor
newpath
51179.2 26967.8 moveto
50729.3 26967.8 lineto
stroke
newpath
50954.2 26967.8 moveto
50954.2 27755.2 lineto
50879.3 27642.7 lineto
50804.3 27567.7 lineto
50729.3 27530.2 lineto
stroke
newpath
51516.7 27042.8 moveto
51554.2 27005.3 lineto
51516.7 26967.8 lineto
51479.2 27005.3 lineto
51516.7 27042.8 lineto
51516.7 26967.8 lineto
stroke
newpath
52266.6 27755.2 moveto
51891.6 27755.2 lineto
51854.1 27380.2 lineto
51891.6 27417.7 lineto
51966.6 27455.2 lineto
52154.1 27455.2 lineto
52229.1 27417.7 lineto
52266.6 27380.2 lineto
52304.1 27305.2 lineto
52304.1 27117.7 lineto
52266.6 27042.8 lineto
52229.1 27005.3 lineto
52154.1 26967.8 lineto
51966.6 26967.8 lineto
51891.6 27005.3 lineto
51854.1 27042.8 lineto
stroke
newpath
52791.5 27755.2 moveto
52866.5 27755.2 lineto
52941.5 27717.7 lineto
52979 27680.2 lineto
53016.5 27605.2 lineto
53054 27455.2 lineto
53054 27267.7 lineto
53016.5 27117.7 lineto
52979 27042.8 lineto
52941.5 27005.3 lineto
52866.5 26967.8 lineto
52791.5 26967.8 lineto
52716.5 27005.3 lineto
52679 27042.8 lineto
52641.5 27117.7 lineto
52604 27267.7 lineto
52604 27455.2 lineto
52641.5 27605.2 lineto
52679 27680.2 lineto
52716.5 27717.7 lineto
52791.5 27755.2 lineto
stroke
newpath
53541.4 27755.2 moveto
53616.4 27755.2 lineto
53691.4 27717.7 lineto
53728.9 27680.2 lineto
53766.4 27605.2 lineto
53803.9 27455.2 lineto
53803.9 27267.7 lineto
53766.4 27117.7 lineto
53728.9 27042.8 lineto
53691.4 27005.3 lineto
53616.4 26967.8 lineto
53541.4 26967.8 lineto
53466.4 27005.3 lineto
53428.9 27042.8 lineto
53391.4 27117.7 lineto
53353.9 27267.7 lineto
53353.9 27455.2 lineto
53391.4 27605.2 lineto
53428.9 27680.2 lineto
53466.4 27717.7 lineto
53541.4 27755.2 lineto
stroke
newpath
54141.4 26967.8 moveto
54141.4 27492.7 lineto
stroke
newpath
54141.4 27417.7 moveto
54178.8 27455.2 lineto
54253.8 27492.7 lineto
54366.3 27492.7 lineto
54441.3 27455.2 lineto
54478.8 27380.2 lineto
54478.8 26967.8 lineto
stroke
newpath
54478.8 27380.2 moveto
54516.3 27455.2 lineto
54591.3 27492.7 lineto
54703.8 27492.7 lineto
54778.8 27455.2 lineto
54816.3 27380.2 lineto
54816.3 26967.8 lineto
stroke
newpath
55191.2 26967.8 moveto
55191.2 27492.7 lineto
stroke
newpath
55191.2 27417.7 moveto
55228.7 27455.2 lineto
55303.7 27492.7 lineto
55416.2 27492.7 lineto
55491.2 27455.2 lineto
55528.7 27380.2 lineto
55528.7 26967.8 lineto
stroke
newpath
55528.7 27380.2 moveto
55566.2 27455.2 lineto
55641.2 27492.7 lineto
55753.6 27492.7 lineto
55828.6 27455.2 lineto
55866.1 27380.2 lineto
55866.1 26967.8 lineto
stroke
newpath
57403.4 27792.7 moveto
56728.5 26780.3 lineto
stroke
newpath
58415.8 27755.2 moveto
58490.8 27755.2 lineto
58565.8 27717.7 lineto
58603.3 27680.2 lineto
58640.8 27605.2 lineto
58678.3 27455.2 lineto
58678.3 27267.7 lineto
58640.8 27117.7 lineto
58603.3 27042.8 lineto
58565.8 27005.3 lineto
58490.8 26967.8 lineto
58415.8 26967.8 lineto
58340.8 27005.3 lineto
58303.3 27042.8 lineto
58265.8 27117.7 lineto
58228.3 27267.7 lineto
58228.3 27455.2 lineto
58265.8 27605.2 lineto
58303.3 27680.2 lineto
58340.8 27717.7 lineto
58415.8 27755.2 lineto
stroke
newpath
59015.7 27042.8 moveto
59053.2 27005.3 lineto
59015.7 26967.8 lineto
58978.2 27005.3 lineto
59015.7 27042.8 lineto
59015.7 26967.8 lineto
stroke
newpath
59540.7 27755.2 moveto
59615.7 27755.2 lineto
59690.7 27717.7 lineto
59728.2 27680.2 lineto
59765.6 27605.2 lineto
59803.1 27455.2 lineto
59803.1 27267.7 lineto
59765.6 27117.7 lineto
59728.2 27042.8 lineto
59690.7 27005.3 lineto
59615.7 26967.8 lineto
59540.7 26967.8 lineto
59465.7 27005.3 lineto
59428.2 27042.8 lineto
59390.7 27117.7 lineto
59353.2 27267.7 lineto
59353.2 27455.2 lineto
59390.7 27605.2 lineto
59428.2 27680.2 lineto
59465.7 27717.7 lineto
59540.7 27755.2 lineto
stroke
newpath
60515.6 27755.2 moveto
60140.6 27755.2 lineto
60103.1 27380.2 lineto
60140.6 27417.7 lineto
60215.6 27455.2 lineto
60403.1 27455.2 lineto
60478.1 27417.7 lineto
60515.6 27380.2 lineto
60553.1 27305.2 lineto
60553.1 27117.7 lineto
60515.6 27042.8 lineto
60478.1 27005.3 lineto
60403.1 26967.8 lineto
60215.6 26967.8 lineto
60140.6 27005.3 lineto
60103.1 27042.8 lineto
stroke
newpath
60928 26967.8 moveto
61078 26967.8 lineto
61153 27005.3 lineto
61190.5 27042.8 lineto
61265.5 27155.2 lineto
61303 27305.2 lineto
61303 27605.2 lineto
61265.5 27680.2 lineto
61228 27717.7 lineto
61153 27755.2 lineto
61003 27755.2 lineto
60928 27717.7 lineto
60890.5 27680.2 lineto
60853 27605.2 lineto
60853 27417.7 lineto
60890.5 27342.7 lineto
60928 27305.2 lineto
61003 27267.7 lineto
61153 27267.7 lineto
61228 27305.2 lineto
61265.5 27342.7 lineto
61303 27417.7 lineto
stroke
newpath
62052.9 26967.8 moveto
61602.9 26967.8 lineto
stroke
newpath
61827.9 26967.8 moveto
61827.9 27755.2 lineto
61752.9 27642.7 lineto
61677.9 27567.7 lineto
61602.9 27530.2 lineto
stroke
newpath
62352.8 27755.2 moveto
62352.8 27605.2 lineto
stroke
newpath
62652.8 27755.2 moveto
62652.8 27605.2 lineto
stroke
newpath
63815.1 26667.8 moveto
63777.6 26705.3 lineto
63702.7 26817.8 lineto
63665.2 26892.8 lineto
63627.7 27005.3 lineto
63590.2 27192.7 lineto
63590.2 27342.7 lineto
63627.7 27530.2 lineto
63665.2 27642.7 lineto
63702.7 27717.7 lineto
63777.6 27830.2 lineto
63815.1 27867.6 lineto
stroke
newpath
64265.1 27755.2 moveto
64340.1 27755.2 lineto
64415.1 27717.7 lineto
64452.6 27680.2 lineto
64490.1 27605.2 lineto
64527.6 27455.2 lineto
64527.6 27267.7 lineto
64490.1 27117.7 lineto
64452.6 27042.8 lineto
64415.1 27005.3 lineto
64340.1 26967.8 lineto
64265.1 26967.8 lineto
64190.1 27005.3 lineto
64152.6 27042.8 lineto
64115.1 27117.7 lineto
64077.6 27267.7 lineto
64077.6 27455.2 lineto
64115.1 27605.2 lineto
64152.6 27680.2 lineto
64190.1 27717.7 lineto
64265.1 27755.2 lineto
stroke
newpath
65464.9 26967.8 moveto
65464.9 27755.2 lineto
stroke
newpath
65802.4 26967.8 moveto
65802.4 27380.2 lineto
65764.9 27455.2 lineto
65689.9 27492.7 lineto
65577.4 27492.7 lineto
65502.4 27455.2 lineto
65464.9 27417.7 lineto
stroke
newpath
66289.8 26967.8 moveto
66214.8 27005.3 lineto
66177.3 27042.8 lineto
66139.9 27117.7 lineto
66139.9 27342.7 lineto
66177.3 27417.7 lineto
66214.8 27455.2 lineto
66289.8 27492.7 lineto
66402.3 27492.7 lineto
66477.3 27455.2 lineto
66514.8 27417.7 lineto
66552.3 27342.7 lineto
66552.3 27117.7 lineto
66514.8 27042.8 lineto
66477.3 27005.3 lineto
66402.3 26967.8 lineto
66289.8 26967.8 lineto
stroke
newpath
67002.2 26967.8 moveto
66927.3 27005.3 lineto
66889.8 27080.2 lineto
66889.8 27755.2 lineto
stroke
newpath
67602.2 27005.3 moveto
67527.2 26967.8 lineto
67377.2 26967.8 lineto
67302.2 27005.3 lineto
67264.7 27080.2 lineto
67264.7 27380.2 lineto
67302.2 27455.2 lineto
67377.2 27492.7 lineto
67527.2 27492.7 lineto
67602.2 27455.2 lineto
67639.7 27380.2 lineto
67639.7 27305.2 lineto
67264.7 27230.2 lineto
stroke
newpath
67939.6 27005.3 moveto
68014.6 26967.8 lineto
68164.6 26967.8 lineto
68239.6 27005.3 lineto
68277.1 27080.2 lineto
68277.1 27117.7 lineto
68239.6 27192.7 lineto
68164.6 27230.2 lineto
68052.1 27230.2 lineto
67977.1 27267.7 lineto
67939.6 27342.7 lineto
67939.6 27380.2 lineto
67977.1 27455.2 lineto
68052.1 27492.7 lineto
68164.6 27492.7 lineto
68239.6 27455.2 lineto
stroke
newpath
69214.5 27267.7 moveto
69814.4 27267.7 lineto
stroke
newpath
69514.4 26967.8 moveto
69514.4 27567.7 lineto
stroke
newpath
71126.7 27492.7 moveto
71126.7 26967.8 lineto
stroke
newpath
70939.3 27792.7 moveto
70751.8 27230.2 lineto
71239.2 27230.2 lineto
stroke
newpath
72101.6 27005.3 moveto
72176.6 26967.8 lineto
72326.6 26967.8 lineto
72401.6 27005.3 lineto
72439.1 27080.2 lineto
72439.1 27117.7 lineto
72401.6 27192.7 lineto
72326.6 27230.2 lineto
72214.1 27230.2 lineto
72139.1 27267.7 lineto
72101.6 27342.7 lineto
72101.6 27380.2 lineto
72139.1 27455.2 lineto
72214.1 27492.7 lineto
72326.6 27492.7 lineto
72401.6 27455.2 lineto
stroke
newpath
72889 26967.8 moveto
72814 27005.3 lineto
72776.5 27080.2 lineto
72776.5 27755.2 lineto
stroke
newpath
73301.5 26967.8 moveto
73226.5 27005.3 lineto
73189 27042.8 lineto
73151.5 27117.7 lineto
73151.5 27342.7 lineto
73189 27417.7 lineto
73226.5 27455.2 lineto
73301.5 27492.7 lineto
73413.9 27492.7 lineto
73488.9 27455.2 lineto
73526.4 27417.7 lineto
73563.9 27342.7 lineto
73563.9 27117.7 lineto
73526.4 27042.8 lineto
73488.9 27005.3 lineto
73413.9 26967.8 lineto
73301.5 26967.8 lineto
stroke
newpath
73788.9 27492.7 moveto
74088.9 27492.7 lineto
stroke
newpath
73901.4 27755.2 moveto
73901.4 27080.2 lineto
73938.9 27005.3 lineto
74013.9 26967.8 lineto
74088.9 26967.8 lineto
stroke
newpath
74313.8 27005.3 moveto
74388.8 26967.8 lineto
74538.8 26967.8 lineto
74613.8 27005.3 lineto
74651.3 27080.2 lineto
74651.3 27117.7 lineto
74613.8 27192.7 lineto
74538.8 27230.2 lineto
74426.3 27230.2 lineto
74351.3 27267.7 lineto
74313.8 27342.7 lineto
74313.8 27380.2 lineto
74351.3 27455.2 lineto
74426.3 27492.7 lineto
74538.8 27492.7 lineto
74613.8 27455.2 lineto
stroke
newpath
74913.8 26667.8 moveto
74951.3 26705.3 lineto
75026.2 26817.8 lineto
75063.7 26892.8 lineto
75101.2 27005.3 lineto
75138.7 27192.7 lineto
75138.7 27342.7 lineto
75101.2 27530.2 lineto
75063.7 27642.7 lineto
75026.2 27717.7 lineto
74951.3 27830.2 lineto
74913.8 27867.6 lineto
stroke
showpage
grestore
%%EOF
