%TF.GenerationSoftware,KiCad,Pcbnew,6.0.2+dfsg-1*%
%TF.CreationDate,2023-04-22T20:42:17-05:00*%
%TF.ProjectId,gave-m4,67617665-2d6d-4342-9e6b-696361645f70,rev?*%
%TF.SameCoordinates,Original*%
%TF.FileFunction,Paste,Top*%
%TF.FilePolarity,Positive*%
%FSLAX46Y46*%
G04 Gerber Fmt 4.6, Leading zero omitted, Abs format (unit mm)*
G04 Created by KiCad (PCBNEW 6.0.2+dfsg-1) date 2023-04-22 20:42:17*
%MOMM*%
%LPD*%
G01*
G04 APERTURE LIST*
G04 Aperture macros list*
%AMRoundRect*
0 Rectangle with rounded corners*
0 $1 Rounding radius*
0 $2 $3 $4 $5 $6 $7 $8 $9 X,Y pos of 4 corners*
0 Add a 4 corners polygon primitive as box body*
4,1,4,$2,$3,$4,$5,$6,$7,$8,$9,$2,$3,0*
0 Add four circle primitives for the rounded corners*
1,1,$1+$1,$2,$3*
1,1,$1+$1,$4,$5*
1,1,$1+$1,$6,$7*
1,1,$1+$1,$8,$9*
0 Add four rect primitives between the rounded corners*
20,1,$1+$1,$2,$3,$4,$5,0*
20,1,$1+$1,$4,$5,$6,$7,0*
20,1,$1+$1,$6,$7,$8,$9,0*
20,1,$1+$1,$8,$9,$2,$3,0*%
G04 Aperture macros list end*
%ADD10RoundRect,0.250000X-0.350000X-0.450000X0.350000X-0.450000X0.350000X0.450000X-0.350000X0.450000X0*%
%ADD11RoundRect,0.250000X-0.337500X-0.475000X0.337500X-0.475000X0.337500X0.475000X-0.337500X0.475000X0*%
%ADD12RoundRect,0.150000X-0.825000X-0.150000X0.825000X-0.150000X0.825000X0.150000X-0.825000X0.150000X0*%
%ADD13RoundRect,0.250000X-0.475000X0.337500X-0.475000X-0.337500X0.475000X-0.337500X0.475000X0.337500X0*%
%ADD14RoundRect,0.250000X0.337500X0.475000X-0.337500X0.475000X-0.337500X-0.475000X0.337500X-0.475000X0*%
%ADD15RoundRect,0.250000X0.475000X-0.337500X0.475000X0.337500X-0.475000X0.337500X-0.475000X-0.337500X0*%
%ADD16RoundRect,0.250000X0.450000X-0.350000X0.450000X0.350000X-0.450000X0.350000X-0.450000X-0.350000X0*%
%ADD17RoundRect,0.150000X0.825000X0.150000X-0.825000X0.150000X-0.825000X-0.150000X0.825000X-0.150000X0*%
%ADD18RoundRect,0.250000X-0.450000X0.350000X-0.450000X-0.350000X0.450000X-0.350000X0.450000X0.350000X0*%
%ADD19R,0.800000X1.900000*%
%ADD20RoundRect,0.250000X0.350000X0.450000X-0.350000X0.450000X-0.350000X-0.450000X0.350000X-0.450000X0*%
G04 APERTURE END LIST*
D10*
%TO.C,R4*%
X115500000Y-115500000D03*
X117500000Y-115500000D03*
%TD*%
D11*
%TO.C,C14*%
X100962500Y-118500000D03*
X103037500Y-118500000D03*
%TD*%
D12*
%TO.C,U1*%
X114525000Y-103095000D03*
X114525000Y-104365000D03*
X114525000Y-105635000D03*
X114525000Y-106905000D03*
X119475000Y-106905000D03*
X119475000Y-105635000D03*
X119475000Y-104365000D03*
X119475000Y-103095000D03*
%TD*%
D10*
%TO.C,R7*%
X122250000Y-123250000D03*
X124250000Y-123250000D03*
%TD*%
D11*
%TO.C,C2*%
X121760500Y-57500000D03*
X123835500Y-57500000D03*
%TD*%
D13*
%TO.C,C13*%
X127000000Y-103962500D03*
X127000000Y-106037500D03*
%TD*%
D14*
%TO.C,C15*%
X115212500Y-118750000D03*
X117287500Y-118750000D03*
%TD*%
D13*
%TO.C,C9*%
X107298000Y-65136500D03*
X107298000Y-67211500D03*
%TD*%
D14*
%TO.C,C5*%
X129787500Y-122250000D03*
X127712500Y-122250000D03*
%TD*%
D13*
%TO.C,C8*%
X107298000Y-58636500D03*
X107298000Y-60711500D03*
%TD*%
D15*
%TO.C,C4*%
X130250000Y-93287500D03*
X130250000Y-91212500D03*
%TD*%
D16*
%TO.C,R21*%
X102500000Y-123326000D03*
X102500000Y-121326000D03*
%TD*%
%TO.C,R3*%
X111000000Y-105000000D03*
X111000000Y-103000000D03*
%TD*%
D17*
%TO.C,U5*%
X111475000Y-123310000D03*
X111475000Y-122040000D03*
X111475000Y-120770000D03*
X111475000Y-119500000D03*
X111475000Y-118230000D03*
X111475000Y-116960000D03*
X111475000Y-115690000D03*
X106525000Y-115690000D03*
X106525000Y-116960000D03*
X106525000Y-118230000D03*
X106525000Y-119500000D03*
X106525000Y-120770000D03*
X106525000Y-122040000D03*
X106525000Y-123310000D03*
%TD*%
D14*
%TO.C,C3*%
X129037500Y-57500000D03*
X126962500Y-57500000D03*
%TD*%
D16*
%TO.C,R6*%
X115000000Y-123326000D03*
X115000000Y-121326000D03*
%TD*%
D18*
%TO.C,R20*%
X99000000Y-121326000D03*
X99000000Y-123326000D03*
%TD*%
D16*
%TO.C,R13*%
X123500000Y-106000000D03*
X123500000Y-104000000D03*
%TD*%
D13*
%TO.C,C10*%
X113500000Y-65962500D03*
X113500000Y-68037500D03*
%TD*%
D18*
%TO.C,R5*%
X120750000Y-115326000D03*
X120750000Y-117326000D03*
%TD*%
D11*
%TO.C,C11*%
X122962500Y-101500000D03*
X125037500Y-101500000D03*
%TD*%
D19*
%TO.C,U2*%
X129050000Y-119000000D03*
X130950000Y-119000000D03*
X130000000Y-116000000D03*
%TD*%
D18*
%TO.C,R19*%
X95250000Y-120250000D03*
X95250000Y-122250000D03*
%TD*%
%TO.C,R18*%
X95250000Y-115750000D03*
X95250000Y-117750000D03*
%TD*%
D20*
%TO.C,R17*%
X103500000Y-115750000D03*
X101500000Y-115750000D03*
%TD*%
D16*
%TO.C,R8*%
X118500000Y-123326000D03*
X118500000Y-121326000D03*
%TD*%
D13*
%TO.C,C1*%
X106500000Y-102962500D03*
X106500000Y-105037500D03*
%TD*%
D18*
%TO.C,R9*%
X125500000Y-117500000D03*
X125500000Y-119500000D03*
%TD*%
M02*
