%!PS-Adobe-3.0
%%Creator: PCBNEW
%%CreationDate: Thu Jun  2 15:00:55 2022
%%Title: ()
%%Pages: 1
%%PageOrder: Ascend
%%BoundingBox: 0 0 596 842
%%DocumentMedia: A4 595 842 0 () ()
%%Orientation: Landscape
%%EndComments
%%BeginProlog
/line { newpath moveto lineto stroke } bind def
/cir0 { newpath 0 360 arc stroke } bind def
/cir1 { newpath 0 360 arc gsave fill grestore stroke } bind def
/cir2 { newpath 0 360 arc gsave fill grestore stroke } bind def
/arc0 { newpath arc stroke } bind def
/arc1 { newpath 4 index 4 index moveto arc closepath gsave fill
    grestore stroke } bind def
/arc2 { newpath 4 index 4 index moveto arc closepath gsave fill
    grestore stroke } bind def
/poly0 { stroke } bind def
/poly1 { closepath gsave fill grestore stroke } bind def
/poly2 { closepath gsave fill grestore stroke } bind def
/rect0 { rectstroke } bind def
/rect1 { rectfill } bind def
/rect2 { rectfill } bind def
/linemode0 { 0 setlinecap 0 setlinejoin 0 setlinewidth } bind def
/linemode1 { 1 setlinecap 1 setlinejoin } bind def
/dashedline { [200] 100 setdash } bind def
/solidline { [] 0 setdash } bind def
/phantomshow { moveto
    /KicadFont findfont 0.000001 scalefont setfont
    show } bind def
/textshow { gsave
    findfont exch scalefont setfont concat 1 scale 0 0 moveto show
    } bind def
/reencodefont {
  findfont dup length dict begin
  { 1 index /FID ne
    { def }
    { pop pop } ifelse
  } forall
  /Encoding ISOLatin1Encoding def
  currentdict
  end } bind def
/KicadFont /Helvetica reencodefont definefont pop
/KicadFont-Bold /Helvetica-Bold reencodefont definefont pop
/KicadFont-Oblique /Helvetica-Oblique reencodefont definefont pop
/KicadFont-BoldOblique /Helvetica-BoldOblique reencodefont definefont pop
%%EndProlog
%%Page: 1 1
%%BeginPageSetup
gsave
0.0072 0.0072 scale
linemode1
82680 0 translate 90 rotate
85.5422 setlinewidth
%%EndPageSetup
0 0 0 setrgbcolor
42.7711 setlinewidth
newpath
49773.9 80690.1 moveto
49773.9 35061.9 lineto
stroke
0 0 0 setrgbcolor
newpath
49773.9 35061.9 moveto
67156.1 35061.9 lineto
stroke
0 0 0 setrgbcolor
newpath
67156.1 35061.9 moveto
67156.1 80690.1 lineto
stroke
0 0 0 setrgbcolor
newpath
67156.1 80690.1 moveto
49773.9 80690.1 lineto
stroke
85.5422 setlinewidth
newpath
50669.1 59905.1 moveto
51524.5 59049.6 lineto
stroke
newpath
51524.5 59905.1 moveto
50669.1 59049.6 lineto
stroke
newpath
54433 59905.1 moveto
55288.4 59049.6 lineto
stroke
newpath
55288.4 59905.1 moveto
54433 59049.6 lineto
stroke
78.7403 setlinewidth
0 0 0 setrgbcolor
0 0 0 setrgbcolor
newpath
50766.8 33818.2 moveto
50766.8 34605.6 lineto
50954.2 34605.6 lineto
51066.7 34568.1 lineto
51141.7 34493.1 lineto
51179.2 34418.1 lineto
51216.7 34268.1 lineto
51216.7 34155.6 lineto
51179.2 34005.6 lineto
51141.7 33930.6 lineto
51066.7 33855.7 lineto
50954.2 33818.2 lineto
50766.8 33818.2 lineto
stroke
newpath
51554.2 33818.2 moveto
51554.2 34343.1 lineto
stroke
newpath
51554.2 34193.1 moveto
51591.7 34268.1 lineto
51629.2 34305.6 lineto
51704.2 34343.1 lineto
51779.1 34343.1 lineto
stroke
newpath
52041.6 33818.2 moveto
52041.6 34343.1 lineto
stroke
newpath
52041.6 34605.6 moveto
52004.1 34568.1 lineto
52041.6 34530.6 lineto
52079.1 34568.1 lineto
52041.6 34605.6 lineto
52041.6 34530.6 lineto
stroke
newpath
52529.1 33818.2 moveto
52454.1 33855.7 lineto
52416.6 33930.6 lineto
52416.6 34605.6 lineto
stroke
newpath
52941.5 33818.2 moveto
52866.5 33855.7 lineto
52829 33930.6 lineto
52829 34605.6 lineto
stroke
newpath
53841.4 33818.2 moveto
53841.4 34605.6 lineto
54103.9 34043.1 lineto
54366.3 34605.6 lineto
54366.3 33818.2 lineto
stroke
newpath
55078.7 33818.2 moveto
55078.7 34230.6 lineto
55041.2 34305.6 lineto
54966.2 34343.1 lineto
54816.3 34343.1 lineto
54741.3 34305.6 lineto
stroke
newpath
55078.7 33855.7 moveto
55003.7 33818.2 lineto
54816.3 33818.2 lineto
54741.3 33855.7 lineto
54703.8 33930.6 lineto
54703.8 34005.6 lineto
54741.3 34080.6 lineto
54816.3 34118.1 lineto
55003.7 34118.1 lineto
55078.7 34155.6 lineto
stroke
newpath
55453.7 34343.1 moveto
55453.7 33555.7 lineto
stroke
newpath
55453.7 34305.6 moveto
55528.7 34343.1 lineto
55678.7 34343.1 lineto
55753.6 34305.6 lineto
55791.1 34268.1 lineto
55828.6 34193.1 lineto
55828.6 33968.1 lineto
55791.1 33893.1 lineto
55753.6 33855.7 lineto
55678.7 33818.2 lineto
55528.7 33818.2 lineto
55453.7 33855.7 lineto
stroke
newpath
56166.1 33893.1 moveto
56203.6 33855.7 lineto
56166.1 33818.2 lineto
56128.6 33855.7 lineto
56166.1 33893.1 lineto
56166.1 33818.2 lineto
stroke
newpath
56166.1 34305.6 moveto
56203.6 34268.1 lineto
56166.1 34230.6 lineto
56128.6 34268.1 lineto
56166.1 34305.6 lineto
56166.1 34230.6 lineto
stroke
78.7399 setlinewidth
newpath
48965.1 32914.5 moveto
49752.5 32127.1 lineto
stroke
newpath
49752.5 32914.5 moveto
48965.1 32127.1 lineto
stroke
85.5422 setlinewidth
78.7403 setlinewidth
0 0 0 setrgbcolor
0 0 0 setrgbcolor
newpath
50729.3 32877 moveto
50766.8 32914.5 lineto
50841.8 32952 lineto
51029.2 32952 lineto
51104.2 32914.5 lineto
51141.7 32877 lineto
51179.2 32802 lineto
51179.2 32727 lineto
51141.7 32614.6 lineto
50691.8 32164.6 lineto
51179.2 32164.6 lineto
stroke
newpath
51516.7 32239.6 moveto
51554.2 32202.1 lineto
51516.7 32164.6 lineto
51479.2 32202.1 lineto
51516.7 32239.6 lineto
51516.7 32164.6 lineto
stroke
newpath
52041.6 32952 moveto
52116.6 32952 lineto
52191.6 32914.5 lineto
52229.1 32877 lineto
52266.6 32802 lineto
52304.1 32652.1 lineto
52304.1 32464.6 lineto
52266.6 32314.6 lineto
52229.1 32239.6 lineto
52191.6 32202.1 lineto
52116.6 32164.6 lineto
52041.6 32164.6 lineto
51966.6 32202.1 lineto
51929.1 32239.6 lineto
51891.6 32314.6 lineto
51854.1 32464.6 lineto
51854.1 32652.1 lineto
51891.6 32802 lineto
51929.1 32877 lineto
51966.6 32914.5 lineto
52041.6 32952 lineto
stroke
newpath
52791.5 32952 moveto
52866.5 32952 lineto
52941.5 32914.5 lineto
52979 32877 lineto
53016.5 32802 lineto
53054 32652.1 lineto
53054 32464.6 lineto
53016.5 32314.6 lineto
52979 32239.6 lineto
52941.5 32202.1 lineto
52866.5 32164.6 lineto
52791.5 32164.6 lineto
52716.5 32202.1 lineto
52679 32239.6 lineto
52641.5 32314.6 lineto
52604 32464.6 lineto
52604 32652.1 lineto
52641.5 32802 lineto
52679 32877 lineto
52716.5 32914.5 lineto
52791.5 32952 lineto
stroke
newpath
53541.4 32952 moveto
53616.4 32952 lineto
53691.4 32914.5 lineto
53728.9 32877 lineto
53766.4 32802 lineto
53803.9 32652.1 lineto
53803.9 32464.6 lineto
53766.4 32314.6 lineto
53728.9 32239.6 lineto
53691.4 32202.1 lineto
53616.4 32164.6 lineto
53541.4 32164.6 lineto
53466.4 32202.1 lineto
53428.9 32239.6 lineto
53391.4 32314.6 lineto
53353.9 32464.6 lineto
53353.9 32652.1 lineto
53391.4 32802 lineto
53428.9 32877 lineto
53466.4 32914.5 lineto
53541.4 32952 lineto
stroke
newpath
54141.4 32164.6 moveto
54141.4 32689.5 lineto
stroke
newpath
54141.4 32614.6 moveto
54178.8 32652.1 lineto
54253.8 32689.5 lineto
54366.3 32689.5 lineto
54441.3 32652.1 lineto
54478.8 32577.1 lineto
54478.8 32164.6 lineto
stroke
newpath
54478.8 32577.1 moveto
54516.3 32652.1 lineto
54591.3 32689.5 lineto
54703.8 32689.5 lineto
54778.8 32652.1 lineto
54816.3 32577.1 lineto
54816.3 32164.6 lineto
stroke
newpath
55191.2 32164.6 moveto
55191.2 32689.5 lineto
stroke
newpath
55191.2 32614.6 moveto
55228.7 32652.1 lineto
55303.7 32689.5 lineto
55416.2 32689.5 lineto
55491.2 32652.1 lineto
55528.7 32577.1 lineto
55528.7 32164.6 lineto
stroke
newpath
55528.7 32577.1 moveto
55566.2 32652.1 lineto
55641.2 32689.5 lineto
55753.6 32689.5 lineto
55828.6 32652.1 lineto
55866.1 32577.1 lineto
55866.1 32164.6 lineto
stroke
newpath
57403.4 32989.5 moveto
56728.5 31977.1 lineto
stroke
newpath
58415.8 32952 moveto
58490.8 32952 lineto
58565.8 32914.5 lineto
58603.3 32877 lineto
58640.8 32802 lineto
58678.3 32652.1 lineto
58678.3 32464.6 lineto
58640.8 32314.6 lineto
58603.3 32239.6 lineto
58565.8 32202.1 lineto
58490.8 32164.6 lineto
58415.8 32164.6 lineto
58340.8 32202.1 lineto
58303.3 32239.6 lineto
58265.8 32314.6 lineto
58228.3 32464.6 lineto
58228.3 32652.1 lineto
58265.8 32802 lineto
58303.3 32877 lineto
58340.8 32914.5 lineto
58415.8 32952 lineto
stroke
newpath
59015.7 32239.6 moveto
59053.2 32202.1 lineto
59015.7 32164.6 lineto
58978.2 32202.1 lineto
59015.7 32239.6 lineto
59015.7 32164.6 lineto
stroke
newpath
59540.7 32952 moveto
59615.7 32952 lineto
59690.7 32914.5 lineto
59728.2 32877 lineto
59765.6 32802 lineto
59803.1 32652.1 lineto
59803.1 32464.6 lineto
59765.6 32314.6 lineto
59728.2 32239.6 lineto
59690.7 32202.1 lineto
59615.7 32164.6 lineto
59540.7 32164.6 lineto
59465.7 32202.1 lineto
59428.2 32239.6 lineto
59390.7 32314.6 lineto
59353.2 32464.6 lineto
59353.2 32652.1 lineto
59390.7 32802 lineto
59428.2 32877 lineto
59465.7 32914.5 lineto
59540.7 32952 lineto
stroke
newpath
60065.6 32952 moveto
60590.5 32952 lineto
60253.1 32164.6 lineto
stroke
newpath
61003 32614.6 moveto
60928 32652.1 lineto
60890.5 32689.5 lineto
60853 32764.5 lineto
60853 32802 lineto
60890.5 32877 lineto
60928 32914.5 lineto
61003 32952 lineto
61153 32952 lineto
61228 32914.5 lineto
61265.5 32877 lineto
61303 32802 lineto
61303 32764.5 lineto
61265.5 32689.5 lineto
61228 32652.1 lineto
61153 32614.6 lineto
61003 32614.6 lineto
60928 32577.1 lineto
60890.5 32539.6 lineto
60853 32464.6 lineto
60853 32314.6 lineto
60890.5 32239.6 lineto
60928 32202.1 lineto
61003 32164.6 lineto
61153 32164.6 lineto
61228 32202.1 lineto
61265.5 32239.6 lineto
61303 32314.6 lineto
61303 32464.6 lineto
61265.5 32539.6 lineto
61228 32577.1 lineto
61153 32614.6 lineto
stroke
newpath
61565.4 32952 moveto
62090.4 32952 lineto
61752.9 32164.6 lineto
stroke
newpath
62352.8 32952 moveto
62352.8 32802 lineto
stroke
newpath
62652.8 32952 moveto
62652.8 32802 lineto
stroke
newpath
63815.1 31864.7 moveto
63777.6 31902.1 lineto
63702.7 32014.6 lineto
63665.2 32089.6 lineto
63627.7 32202.1 lineto
63590.2 32389.6 lineto
63590.2 32539.6 lineto
63627.7 32727 lineto
63665.2 32839.5 lineto
63702.7 32914.5 lineto
63777.6 33027 lineto
63815.1 33064.5 lineto
stroke
newpath
64077.6 32877 moveto
64115.1 32914.5 lineto
64190.1 32952 lineto
64377.6 32952 lineto
64452.6 32914.5 lineto
64490.1 32877 lineto
64527.6 32802 lineto
64527.6 32727 lineto
64490.1 32614.6 lineto
64040.1 32164.6 lineto
64527.6 32164.6 lineto
stroke
newpath
65464.9 32164.6 moveto
65464.9 32952 lineto
stroke
newpath
65802.4 32164.6 moveto
65802.4 32577.1 lineto
65764.9 32652.1 lineto
65689.9 32689.5 lineto
65577.4 32689.5 lineto
65502.4 32652.1 lineto
65464.9 32614.6 lineto
stroke
newpath
66289.8 32164.6 moveto
66214.8 32202.1 lineto
66177.3 32239.6 lineto
66139.9 32314.6 lineto
66139.9 32539.6 lineto
66177.3 32614.6 lineto
66214.8 32652.1 lineto
66289.8 32689.5 lineto
66402.3 32689.5 lineto
66477.3 32652.1 lineto
66514.8 32614.6 lineto
66552.3 32539.6 lineto
66552.3 32314.6 lineto
66514.8 32239.6 lineto
66477.3 32202.1 lineto
66402.3 32164.6 lineto
66289.8 32164.6 lineto
stroke
newpath
67002.2 32164.6 moveto
66927.3 32202.1 lineto
66889.8 32277.1 lineto
66889.8 32952 lineto
stroke
newpath
67602.2 32202.1 moveto
67527.2 32164.6 lineto
67377.2 32164.6 lineto
67302.2 32202.1 lineto
67264.7 32277.1 lineto
67264.7 32577.1 lineto
67302.2 32652.1 lineto
67377.2 32689.5 lineto
67527.2 32689.5 lineto
67602.2 32652.1 lineto
67639.7 32577.1 lineto
67639.7 32502.1 lineto
67264.7 32427.1 lineto
stroke
newpath
67939.6 32202.1 moveto
68014.6 32164.6 lineto
68164.6 32164.6 lineto
68239.6 32202.1 lineto
68277.1 32277.1 lineto
68277.1 32314.6 lineto
68239.6 32389.6 lineto
68164.6 32427.1 lineto
68052.1 32427.1 lineto
67977.1 32464.6 lineto
67939.6 32539.6 lineto
67939.6 32577.1 lineto
67977.1 32652.1 lineto
68052.1 32689.5 lineto
68164.6 32689.5 lineto
68239.6 32652.1 lineto
stroke
newpath
68539.6 31864.7 moveto
68577 31902.1 lineto
68652 32014.6 lineto
68689.5 32089.6 lineto
68727 32202.1 lineto
68764.5 32389.6 lineto
68764.5 32539.6 lineto
68727 32727 lineto
68689.5 32839.5 lineto
68652 32914.5 lineto
68577 33027 lineto
68539.6 33064.5 lineto
stroke
newpath
69964.4 31864.7 moveto
69926.9 31902.1 lineto
69851.9 32014.6 lineto
69814.4 32089.6 lineto
69776.9 32202.1 lineto
69739.4 32389.6 lineto
69739.4 32539.6 lineto
69776.9 32727 lineto
69814.4 32839.5 lineto
69851.9 32914.5 lineto
69926.9 33027 lineto
69964.4 33064.5 lineto
stroke
newpath
70264.3 32689.5 moveto
70264.3 32164.6 lineto
stroke
newpath
70264.3 32614.6 moveto
70301.8 32652.1 lineto
70376.8 32689.5 lineto
70489.3 32689.5 lineto
70564.3 32652.1 lineto
70601.8 32577.1 lineto
70601.8 32164.6 lineto
stroke
newpath
71089.2 32164.6 moveto
71014.2 32202.1 lineto
70976.7 32239.6 lineto
70939.3 32314.6 lineto
70939.3 32539.6 lineto
70976.7 32614.6 lineto
71014.2 32652.1 lineto
71089.2 32689.5 lineto
71201.7 32689.5 lineto
71276.7 32652.1 lineto
71314.2 32614.6 lineto
71351.7 32539.6 lineto
71351.7 32314.6 lineto
71314.2 32239.6 lineto
71276.7 32202.1 lineto
71201.7 32164.6 lineto
71089.2 32164.6 lineto
stroke
newpath
71576.7 32689.5 moveto
71876.6 32689.5 lineto
stroke
newpath
71689.2 32952 moveto
71689.2 32277.1 lineto
71726.7 32202.1 lineto
71801.6 32164.6 lineto
71876.6 32164.6 lineto
stroke
newpath
72739 32689.5 moveto
72739 31902.1 lineto
stroke
newpath
72739 32652.1 moveto
72814 32689.5 lineto
72964 32689.5 lineto
73039 32652.1 lineto
73076.5 32614.6 lineto
73114 32539.6 lineto
73114 32314.6 lineto
73076.5 32239.6 lineto
73039 32202.1 lineto
72964 32164.6 lineto
72814 32164.6 lineto
72739 32202.1 lineto
stroke
newpath
73563.9 32164.6 moveto
73488.9 32202.1 lineto
73451.4 32277.1 lineto
73451.4 32952 lineto
stroke
newpath
74201.3 32164.6 moveto
74201.3 32577.1 lineto
74163.8 32652.1 lineto
74088.9 32689.5 lineto
73938.9 32689.5 lineto
73863.9 32652.1 lineto
stroke
newpath
74201.3 32202.1 moveto
74126.4 32164.6 lineto
73938.9 32164.6 lineto
73863.9 32202.1 lineto
73826.4 32277.1 lineto
73826.4 32352.1 lineto
73863.9 32427.1 lineto
73938.9 32464.6 lineto
74126.4 32464.6 lineto
74201.3 32502.1 lineto
stroke
newpath
74463.8 32689.5 moveto
74763.8 32689.5 lineto
stroke
newpath
74576.3 32952 moveto
74576.3 32277.1 lineto
74613.8 32202.1 lineto
74688.8 32164.6 lineto
74763.8 32164.6 lineto
stroke
newpath
75326.2 32202.1 moveto
75251.2 32164.6 lineto
75101.2 32164.6 lineto
75026.2 32202.1 lineto
74988.7 32277.1 lineto
74988.7 32577.1 lineto
75026.2 32652.1 lineto
75101.2 32689.5 lineto
75251.2 32689.5 lineto
75326.2 32652.1 lineto
75363.7 32577.1 lineto
75363.7 32502.1 lineto
74988.7 32427.1 lineto
stroke
newpath
76038.6 32164.6 moveto
76038.6 32952 lineto
stroke
newpath
76038.6 32202.1 moveto
75963.6 32164.6 lineto
75813.6 32164.6 lineto
75738.7 32202.1 lineto
75701.2 32239.6 lineto
75663.7 32314.6 lineto
75663.7 32539.6 lineto
75701.2 32614.6 lineto
75738.7 32652.1 lineto
75813.6 32689.5 lineto
75963.6 32689.5 lineto
76038.6 32652.1 lineto
stroke
newpath
76338.6 31864.7 moveto
76376.1 31902.1 lineto
76451.1 32014.6 lineto
76488.6 32089.6 lineto
76526.1 32202.1 lineto
76563.5 32389.6 lineto
76563.5 32539.6 lineto
76526.1 32727 lineto
76488.6 32839.5 lineto
76451.1 32914.5 lineto
76376.1 33027 lineto
76338.6 33064.5 lineto
stroke
showpage
grestore
%%EOF
