$ 1 0.000005 10.20027730826997 50 5 43 5e-11
g 80 240 80 288 0 0
w 304 240 80 240 0
s -32 112 80 112 0 1 false
R -32 112 -80 112 0 0 40 12 0 0 0.5
t 304 112 480 112 0 1 -3.299999881000004 1.1219999589282285e-7 100 default
w 480 128 480 240 0
w 480 240 304 240 0
r 480 96 480 32 0 1000
R 480 32 480 -16 0 0 40 3.3 0 0 0.5
O 480 96 544 96 1 0
r 80 112 304 112 0 100000
r 304 112 304 240 0 33000
